<?xml version="1.0" encoding="UTF-8" standalone="no"?>
<svg
   xmlns:dc="http://purl.org/dc/elements/1.1/"
   xmlns:cc="http://creativecommons.org/ns#"
   xmlns:rdf="http://www.w3.org/1999/02/22-rdf-syntax-ns#"
   xmlns:svg="http://www.w3.org/2000/svg"
   xmlns="http://www.w3.org/2000/svg"
   version="1.1"
   id="svg8434"
   width="1397.7845"
   height="1811.1285"
   viewBox="0 0 1397.7845 1811.1285">
  <metadata
     id="metadata8440">
    <rdf:RDF>
      <cc:Work
         rdf:about="">
        <dc:format>image/svg+xml</dc:format>
        <dc:type
           rdf:resource="http://purl.org/dc/dcmitype/StillImage" />
        <dc:title></dc:title>
      </cc:Work>
    </rdf:RDF>
  </metadata>
  <defs
     id="defs8438" />
  <path
     style="fill:#000000;stroke-width:0.99996442"
     d="m 1011.8119,1810.5347 c -3.0248,-0.4246 -10.4023,-2.4258 -16.39462,-4.4471 -9.01506,-3.041 -14.0188,-4.0068 -28.99794,-5.5973 -14.86984,-1.5788 -19.94648,-2.5531 -28.42537,-5.4553 -6.66283,-2.2806 -14.63936,-4.0919 -22.4984,-5.1089 -6.69672,-0.8666 -15.22082,-2.4154 -18.94225,-3.4418 -3.72154,-1.0264 -11.59598,-2.618 -17.49875,-3.5369 -13.54104,-2.108 -47.29504,-11.7348 -53.17292,-15.1653 -2.44372,-1.4263 -5.81848,-4.0609 -7.49946,-5.8548 -1.68098,-1.7939 -8.68088,-6.2171 -15.5554,-9.8294 -7.80434,-4.1008 -11.61087,-6.5734 -10.13427,-6.5828 2.7099,-0.017 16.61971,3.6024 32.63267,8.4919 6.04957,1.8472 16.39883,4.7601 22.99836,6.473 6.59953,1.713 14.02401,3.7657 16.49883,4.5616 2.47482,0.7959 9.44933,2.1025 15.49889,2.9035 6.04957,0.801 14.82395,2.3544 19.49862,3.4521 4.67466,1.0976 13.77941,2.6699 20.23285,3.4941 6.95621,0.8883 16.12826,2.9192 22.5273,4.988 8.23621,2.6628 13.86721,3.7552 23.76401,4.61 17.51575,1.513 22.12492,2.3943 34.96865,6.686 l 10.9992,3.6753 27.998,0.075 27.998,0.075 9.9993,-3.3906 c 9.4494,-3.2042 10.9889,-3.4242 27.998,-4 l 17.9987,-0.6094 11.2083,-6.2034 c 6.1646,-3.4118 16.0639,-9.7189 21.9985,-14.0158 14.2718,-10.3333 17.4312,-12.3293 27.3794,-17.2977 12.1197,-6.0527 14.3007,-8.0095 19.0039,-17.0503 6.3544,-12.2147 13.8438,-18.1066 18.109,-14.2464 3.2811,2.9697 2.3244,9.0697 -3.2482,20.7092 -6.6046,13.7949 -10.1998,17.2881 -26.8013,26.041 -7.2361,3.8152 -17.0931,9.9275 -21.9044,13.583 -9.4034,7.1444 -25.0434,16.8515 -34.746,21.5655 -5.7349,2.7863 -6.7937,2.9429 -23.9983,3.5498 -16.6477,0.5872 -18.7867,0.8835 -28.4979,3.9479 l -10.4993,3.313 -27.498,0.2054 c -15.1239,0.113 -29.9729,-0.1419 -32.9977,-0.5665 z M 730.33196,1760.663 c -4.45978,-2.72 -9.47243,-8.8627 -12.33622,-15.1174 -2.05276,-4.4834 -2.66071,-7.7483 -3.17388,-17.0456 -0.74854,-13.5618 -2.65311,-19.0169 -15.3439,-43.9479 -16.8629,-33.1272 -17.89943,-35.4197 -18.13511,-40.1079 -0.12599,-2.5056 -0.74165,-5.5136 -1.3682,-6.6842 -1.73168,-3.236 -1.4484,-3.5393 2.61071,-2.7951 6.60673,1.2113 8.72328,3.9036 25.96965,33.0351 8.98836,15.1827 19.93388,39.3867 21.80515,48.2183 0.79034,3.7299 1.44479,9.8415 1.45429,13.5814 0.019,7.493 0.83284,9.5701 7.66536,19.5666 4.27449,6.2541 5.33112,9.1337 3.35126,9.1337 -0.54996,0 -0.99993,0.7016 -0.99993,1.559 0,0.8575 -0.44997,1.2809 -0.99993,0.941 -0.54996,-0.3399 -0.99993,-0.1415 -0.99993,0.441 0,1.7162 -6.24885,1.2044 -9.49932,-0.778 z m 259.84539,-9.913 c -2.58612,-5.2034 -2.61081,-21.4918 -0.044,-29.25 3.74394,-11.3174 10.04515,-19 15.58365,-19 2.6099,0 2.7489,1.6578 0.2066,2.4648 -3.8406,1.219 -10.09105,23.0812 -10.10445,35.3424 -0.01,5.794 -1.78777,14.1928 -3.01039,14.1928 -0.42197,0 -1.60598,-1.6875 -2.63111,-3.75 z m 234.60605,-39.3764 c -1.9255,-3.0438 -2.0758,-4.3023 -1.5378,-12.8736 0.3279,-5.225 0.8787,-15.4224 1.2239,-22.661 0.4986,-10.4567 0.9049,-13.0545 1.9773,-12.643 1.0098,0.3875 1.3497,-0.6154 1.3497,-3.982 0,-3.0775 0.4742,-4.682 1.4999,-5.0756 2.2931,-0.88 3.7704,0.062 6.4857,4.1336 2.1518,3.2269 2.555,5.1858 2.9998,14.5732 l 0.5138,10.8451 3.4357,-4.5951 c 1.8895,-2.5274 3.5341,-4.5952 3.6545,-4.5952 0.698,0 -1.1848,9.5844 -3.143,16 -1.259,4.125 -3.0868,10.425 -4.0618,14 -2.1151,7.7554 -3.2126,9.033 -8.3518,9.7224 -3.5955,0.4823 -4.0844,0.252 -6.0459,-2.8488 z M 1219.3258,1664 c 0.3553,-1.1 3.6441,-12.0234 7.3082,-24.2742 3.6642,-12.2508 6.8072,-21.5905 6.9845,-20.7548 0.7334,3.4563 -9.1961,36.7433 -12.9846,43.529 -1.0749,1.925 -1.6634,2.6 -1.3081,1.5 z m -554.98914,-35.4287 c -4.66377,-1.1256 -7.26198,-2.8187 -13.87151,-9.0395 -8.20082,-7.7184 -12.7004,-11.515 -15.20282,-12.8274 -1.14192,-0.5989 -6.76652,-1.3889 -12.49911,-1.7554 -15.21752,-0.9732 -66.52236,-8.7663 -79.41794,-12.0635 -8.02063,-2.0507 -33.08575,-15.5745 -40.92179,-22.0792 -3.45575,-2.8686 -9.43525,-8.9486 -13.28776,-13.511 -14.49652,-17.1678 -34.20163,-35.4106 -49.61888,-45.9367 -13.76437,-9.3976 -27.98506,-20.6286 -44.35587,-35.0307 -17.60513,-15.488 -30.08437,-30.088 -36.02897,-42.1519 -1.67382,-3.3968 -5.38005,-10.9152 -8.23606,-16.7076 -4.7309,-9.5948 -5.0826,-10.7733 -3.95425,-13.25 1.60126,-3.5146 2.68295,-3.4812 2.16225,0.067 -0.35132,2.3939 0.38637,3.4124 5.25106,7.25 3.11289,2.4556 8.86214,8.7398 12.77612,13.9648 12.87452,17.187 23.02325,28.163 37.72401,40.7993 16.97847,14.5941 29.4703,24.1954 43.95099,33.781 5.74936,3.8058 14.98715,11.1947 20.52844,16.4197 5.54129,5.225 12.14007,11.3675 14.66396,13.65 2.52391,2.2824 8.89678,9.0704 14.16197,15.0843 11.63337,13.2876 16.67291,17.2227 32.1857,25.132 9.70931,4.9503 13.90731,6.4833 21.99844,8.0329 27.13916,5.1977 62.86242,10.1008 73.59245,10.1008 9.57802,0 16.42433,2.0399 22.70369,6.7648 7.37007,5.5454 22.04543,19.2566 24.67454,23.0533 2.19494,3.1699 2.38773,7.1819 0.34508,7.1819 -0.51837,0 -0.62046,0.5209 -0.22699,1.1575 0.48647,0.7872 0.049,0.9834 -1.3661,0.6132 -1.49729,-0.3916 -1.93206,-0.1551 -1.54929,0.8425 0.58416,1.5222 -1.21861,1.6558 -6.18136,0.4581 z m 468.40544,-4.4363 c -6.2716,-1.6913 -8.6573,-3.5816 -22.59,-17.8998 -7.8782,-8.0963 -14.3947,-15.9455 -18.56,-22.3561 -7.0685,-10.8787 -9.8328,-13.2363 -22.2185,-18.95 -8.8113,-4.0648 -15.1476,-4.7304 -20.1927,-2.1213 -3.9692,2.0527 -10.5221,9.2796 -15.3661,16.9466 -7.0401,11.1428 -9.2997,13.7007 -16.4572,18.6299 -8.3216,5.7309 -13.8237,8.608 -18.31648,9.5779 -4.37279,0.944 -11.2267,-0.2966 -11.94235,-2.1617 -0.31668,-0.8251 -1.63518,-2.5598 -2.93019,-3.8549 -1.63939,-1.6394 -2.35783,-3.5076 -2.36553,-6.1501 -0.01,-2.0875 -0.27308,-5.5955 -0.59346,-7.7955 l -0.58246,-4 3.43316,5.5 c 3.39065,5.4319 3.48995,5.4981 8.02232,5.3442 3.59495,-0.1221 6.06657,-1.1234 11.40929,-4.622 9.1261,-5.976 10.5001,-7.4142 17.7768,-18.6071 10.8969,-16.7618 20.1565,-23.9132 32.216,-24.8813 7.9077,-0.6348 13.5764,0.8063 24.8591,6.3196 11.0646,5.4067 17.3947,11.3487 26.0088,24.4145 7.1481,10.8421 27.2061,31.4306 31.726,32.5651 5.8114,1.4587 10.7135,-5.2308 12.8905,-17.5902 1.4554,-8.2632 -0.01,-17.1737 -5.6563,-34.4549 -4.5181,-13.8218 -10.2516,-35.3406 -12.5195,-46.9879 -1.9211,-9.8659 -10.8278,-43.9847 -13.1072,-50.2095 -2.4014,-6.558 -14.5416,-33.2212 -18.5725,-40.7905 -6.2601,-11.7554 -16.852,-23.5 -21.1935,-23.5 -4.5361,0 -10.5194,5.2159 -16.2858,14.197 -18.3407,28.5656 -23.0971,34.8155 -39.4835,51.8821 -10.5188,10.9555 -17.6159,20.8403 -22.0438,30.7031 -8.11478,18.0742 -18.24556,55.0256 -18.32625,66.8434 -0.077,11.2247 -10.62415,14.0733 -14.50257,3.9168 -3.33016,-8.7204 -0.24208,-26.772 9.54982,-55.8247 9.71851,-28.8349 15.54289,-38.7898 34.1858,-58.4303 14.2086,-14.9689 16.7331,-18.1937 31.7959,-40.6165 13.1413,-19.5623 16.2449,-22.428 25.3027,-23.3629 3.4104,-0.352 5.6951,-1.0657 5.6951,-1.7789 0,-2.3468 4.6251,-3.8121 9.6684,-3.0631 4.3716,0.6492 5.5922,1.4968 12.8468,8.9209 10.5973,10.8447 14.1519,16.4224 24.2125,37.9924 13.826,29.6432 16.7744,39.3018 27.8153,91.1207 1.9922,9.35 5.5786,23.075 7.9697,30.5 5.5971,17.3804 6.3145,20.2247 7.5147,29.7969 2.4984,19.9269 -4.651,37.8565 -17.477,43.8294 -5.6836,2.6468 -7.1413,2.7548 -13.6158,1.0087 z m 102.7333,-9.901 c -7.2516,-6.8396 -8.4786,-19.9138 -3.704,-39.4677 5.0794,-20.8024 8.3619,-27.0648 22.4691,-42.8666 16.0387,-17.9656 33.1214,-33.8028 47.6597,-44.1848 14.103,-10.0713 24.0311,-25.4749 32.3238,-50.1508 2.3223,-6.9103 6.1161,-17.4175 8.4308,-23.3495 2.7021,-6.9247 5.42,-16.7685 7.5929,-27.5 1.8614,-9.193 4.5614,-22.0846 6,-28.6478 1.4386,-6.5633 2.484,-12.6165 2.3232,-13.4516 -0.1608,-0.835 -2.249,3.0644 -4.6404,8.6654 -5.4368,12.7334 -18.5921,35.747 -28.6043,50.0394 -16.8489,24.0519 -42.7733,54.1518 -46.6569,54.1717 -0.8929,0 -3.5525,1.7718 -5.9103,3.9271 -9.7916,8.951 -27.1284,8.7209 -36.9781,-0.4908 -1.3832,-1.2936 -6.9951,-4.6332 -12.471,-7.4214 -5.4759,-2.7881 -13.1186,-7.4396 -16.9837,-10.3367 -3.8653,-2.897 -9.0519,-6.5954 -11.526,-8.2186 -2.4741,-1.6232 -9.6921,-7.9013 -16.04,-13.9513 -6.3478,-6.05 -13.555,-12.6218 -16.0159,-14.604 -13.6934,-11.0297 -38.0486,-56.4255 -47.9615,-89.396 -5.2816,-17.5666 -7.0226,-34.6788 -4.5135,-44.3626 1.9115,-7.3771 1.9469,-10.7656 0.1197,-11.4667 -0.7786,-0.2989 -1.9349,-3.0438 -2.5692,-6.0998 -0.9838,-4.7393 -0.8572,-6.9912 0.8605,-15.3137 2.0427,-9.8963 8.4488,-29.053 12.1263,-36.262 2.0687,-4.0553 12.9322,-17.711 24.6576,-30.9952 3.6409,-4.125 10.3197,-12.4701 14.8417,-18.5447 8.0928,-10.8718 14.6035,-17.5217 21.4939,-21.9536 1.9249,-1.238 9.5743,-7.2907 16.9988,-13.4504 7.4245,-6.1597 16.1989,-13.0283 19.4986,-15.2636 3.2998,-2.2352 6.2009,-4.2407 6.447,-4.4566 0.246,-0.216 -0.3194,-1.6908 -1.2565,-3.2774 -2.1167,-3.5834 -1.7555,-6.2914 1.2685,-9.5105 4.2169,-4.489 10.2777,-6.0537 23.0389,-5.9478 18.1541,0.1506 40.4906,6.6736 48.4966,14.1626 1.6498,1.5433 4.4539,3.829 6.2312,5.0791 1.7774,1.2502 5.8271,5.0119 8.9994,8.3594 17.264,18.2173 26.441,30.0031 33.7659,43.3643 3.8497,7.0222 8.0518,15.2813 9.3379,18.3534 3.9316,9.3912 11.1344,30.464 11.1479,32.6146 0.01,1.1158 1.3548,7.1908 2.9951,13.5 2.5023,9.6248 3.0043,13.5637 3.1186,24.4712 0.1186,11.3164 0.251,12.2877 1.0228,7.5 2.3213,-14.3993 2.9806,-20.0809 3.5254,-30.3792 0.399,-7.5462 1.0232,-11.4712 1.9414,-12.2109 0.7444,-0.5996 1.64,-3.5289 1.9903,-6.5096 l 0.6368,-5.4194 -3.3835,-1.2236 c -1.9413,-0.702 -4.2243,-2.6163 -5.3556,-4.4905 -1.8702,-3.0982 -1.9763,-5.3055 -2.0555,-42.7668 -0.048,-22.8578 -0.5704,-43.7132 -1.2392,-49.5 -0.6358,-5.5 -1.8617,-16.075 -2.7242,-23.5 -1.379,-11.8698 -1.4389,-20.8057 -0.4961,-74 0.5898,-33.275 1.5457,-69.1545 2.1243,-79.7322 0.5786,-10.5776 0.7969,-19.6448 0.4851,-20.1493 -0.8523,-1.3793 1.1494,-62.3507 2.3678,-72.1185 3.3874,-27.1573 5.255,-46.137 5.7635,-58.5712 0.5047,-12.3442 0.3602,-14.3995 -1.1772,-16.746 -2.2901,-3.4954 -2.2441,-12.1372 0.1403,-26.3458 1.4254,-8.4941 1.8147,-16.242 1.8008,-35.837 -0.017,-24.07086 -0.1554,-25.83622 -3.7201,-47.5 -2.0364,-12.375 -4.1671,-27.9 -4.7352,-34.5 -0.9134,-10.61232 -4.7031,-32.0981 -12.5232,-71 -1.3267,-6.6 -3.3485,-17.4 -4.4928,-24 -1.1442,-6.6 -3.6012,-17.85 -5.46,-25 -1.8587,-7.15 -5.5067,-21.325 -8.1066,-31.5 -2.5999,-10.175 -6.5073,-22.775 -8.6831,-28 -2.1757,-5.225 -5.4344,-13.1 -7.2414,-17.5 -1.807,-4.4 -7.3346,-16.325 -12.2836,-26.5 -4.949,-10.175 -10.4242,-21.875 -12.1669,-26 -1.7429,-4.125 -7.5649,-14.25 -12.9379,-22.5 -5.373,-8.25 -12.1206,-19.14649 -14.9945,-24.21442 -5.8639,-10.3406 -10.3613,-16.48079 -22.183,-30.28558 -4.4744,-5.225 -10.9701,-13.55 -14.4349,-18.5 -3.4649,-4.95 -10.2809,-13.51105 -15.1468,-19.02455 -4.8658,-5.5135 -14.1266,-16.3135 -20.5793,-24 -6.4528,-7.6865 -12.3523,-14.49728 -13.1102,-15.13507 -0.7577,-0.63779 -7.8523,-6.05347 -15.7656,-12.03484 -7.9135,-5.98137 -17.0878,-12.92352 -20.3876,-15.427 -44.9395,-34.09484 -56.0996,-41.1086 -82.4941,-51.84502 -2.4748,-1.00667 -9.9338,-4.32236 -16.5754,-7.36819 -6.6417,-3.04583 -18.7908,-8.22875 -26.9981,-11.51759 -8.2073,-3.28884 -21.4469,-9.1131 -29.42134,-12.94281 C 984.83883,87.87523 973.81462,82.8497 968.31501,80.53711 962.8154,78.22451 951.5662,72.83873 943.31679,68.56872 927.79599,60.53492 916.25552,55.69094 888.05362,45.37258 864.60929,36.7949 832.2357,29.36516 801.3269,25.46876 788.12784,23.80487 776.54117,22.2009 775.57874,21.90437 c -0.96244,-0.29653 -1.74988,-0.35477 -1.74988,-0.12942 0,0.22534 5.97577,6.44317 13.27955,13.81738 19.7467,19.93729 30.24515,33.58347 38.76244,50.38458 3.89703,7.6873 7.56996,14.56067 8.16212,15.27416 0.59206,0.7135 0.82264,1.55117 0.51237,1.8615 -0.31038,0.31034 -1.16192,-0.56803 -1.89237,-1.95192 -0.73055,-1.38389 -3.82073,-5.13617 -6.86701,-8.33841 -3.04638,-3.20223 -14.55546,-15.95022 -25.57588,-28.32887 -17.30987,-19.44345 -25.2875,-27.42278 -38.81793,-38.8262 -1.5224,-1.28306 -4.81546,-3.42159 -7.31798,-4.75228 l -4.54998,-2.41944 -61.09245,0.0408 c -74.60488,0.0498 -93.01407,1.01573 -135.08717,7.08776 -18.96605,2.7372 -23.03096,3.69456 -41.99701,9.89095 -11.54918,3.77324 -26.17314,8.26617 -32.49769,9.9843 -6.32455,1.71813 -15.45506,4.90429 -20.29003,7.08036 -4.83497,2.17607 -14.27934,5.83844 -20.98749,8.13861 -6.89699,2.36491 -21.10838,8.7005 -32.70619,14.58074 -11.28026,5.71924 -22.53441,11.21124 -25.00924,12.20444 -2.47482,0.99321 -13.85583,6.34875 -25.29114,11.90121 -11.4353,5.55246 -21.05622,10.09538 -21.3798,10.09538 -0.32359,0 -4.69146,2.33253 -9.70637,5.1834 -18.67183,10.61453 -51.90024,33.79242 -69.61371,48.55782 -6.87451,5.73038 -14.74895,12.25874 -17.49876,14.50748 -6.20795,5.07675 -34.40869,33.35819 -40.49711,40.61301 -7.88976,9.40124 -9.10254,6.93631 15.61767,31.74207 12.03381,12.07546 37.8499,36.79207 57.36908,54.9258 19.51919,18.13373 38.12088,35.44542 41.33712,38.47042 3.21624,3.025 6.26734,5.6534 6.78023,5.84089 0.51289,0.18749 -0.46419,-3.41251 -2.17131,-8 C 307.66247,322.15276 305.77285,302.5 311.06826,302.5 c 0.6248,0 1.89595,-0.68779 2.82477,-1.52842 1.40374,-1.27046 2.17647,-1.32187 4.57842,-0.30461 1.5893,0.6731 3.40765,1.25458 4.04078,1.29218 1.33992,0.0796 10.48921,17.1688 12.3357,23.04085 2.74957,8.74397 16.34944,44.10308 20.48802,53.26801 3.05086,6.75617 5.24003,10.25423 7.15934,11.4399 3.57141,2.20627 6.80547,12.67166 3.73901,12.09938 -1.79253,-0.33454 -0.90971,6.09364 1.33594,9.72742 1.18531,1.91802 2.46895,5.85331 2.85253,8.7451 0.61212,4.61472 0.43676,5.48389 -1.43374,7.10629 -1.17215,1.01667 -2.13118,2.41331 -2.13118,3.10364 0,1.00231 -0.30215,1.00437 -1.49989,0.0103 -0.99953,-0.8296 -1.4999,-0.8787 -1.4999,-0.1472 0,0.72515 -0.76357,0.80737 -2.24984,0.24225 -1.23741,-0.4705 -2.58259,-0.92167 -2.98928,-1.00261 -2.35814,-0.46932 -3.76024,-1.47588 -3.76024,-2.69947 0,-0.76615 -0.33747,-1.42375 -0.74994,-1.46133 -0.41247,-0.0376 -2.84026,-0.22157 -5.3951,-0.40888 -2.55483,-0.1873 -5.50166,-0.79898 -6.54851,-1.35928 -1.04685,-0.5603 -4.80612,-1.32085 -8.35393,-1.69012 -8.82502,-0.91853 -17.17544,-3.10238 -24.41477,-6.38508 -3.34441,-1.51654 -11.24488,-4.0131 -17.5566,-5.54791 -12.68112,-3.08365 -18.24691,-5.29762 -29.14757,-11.59438 -15.5477,-8.98111 -19.05195,-13.83424 -15.21708,-21.07455 0.98215,-1.85431 1.85338,-3.82148 1.93605,-4.37148 0.0827,-0.55 0.21886,-1.49027 0.30263,-2.08948 0.20483,-1.46524 4.64644,-3.41052 7.78715,-3.41052 1.39761,0 11.19238,2.25 21.76615,5 10.57377,2.75 20.09585,4.9881 21.16015,4.97356 1.4153,-0.0193 0.0549,-1.7962 -5.06439,-6.6147 -3.84972,-3.62355 -11.49918,-10.91143 -16.99879,-16.19527 -17.81927,-17.12019 -31.5951,-30.28912 -52.48003,-50.16796 -11.26528,-10.7226 -25.21428,-24.042 -30.99779,-29.59867 -15.05253,-14.46213 -24.10021,-22.85106 -25.01866,-23.19711 -1.11891,-0.42157 -19.94438,23.67991 -35.29755,45.18998 C 117.60535,320.65781 98.595056,349.51765 91.681349,362 c -11.572546,20.89362 -21.917169,41.5102 -24.71199,49.25034 -1.595627,4.41905 -4.965487,12.77589 -7.488567,18.57076 -2.52308,5.79488 -7.092595,19.00576 -10.154477,29.35752 -4.586603,15.50664 -5.734931,20.93477 -6.520325,30.82138 -0.524303,6.6 -1.608425,17.175 -2.409168,23.5 -1.640324,12.95676 -2.767723,27.79242 -4.977506,65.5 -0.83803,14.3 -2.071912,35.225 -2.741975,46.5 -1.970219,33.15279 -2.148917,80.4882 -0.392602,104 0.84223,11.275 1.776414,25.5193 2.075962,31.6539 0.299539,6.1347 1.172837,16.0347 1.940662,22 0.767826,5.9654 1.681041,15.1211 2.029376,20.3461 1.454876,21.8234 6.74059,59.7779 10.584096,76 4.377538,18.4761 7.461548,34.6363 12.499949,65.5 5.33739,32.6951 9.27674,51.6537 13.476191,64.8559 2.124598,6.6792 4.998273,16.6564 6.385935,22.1713 1.387671,5.515 3.717805,13.165 5.178081,17 1.460266,3.8351 5.960245,16.8728 9.999958,28.9728 13.666641,40.9352 24.984601,67.8001 38.972601,92.5073 2.96042,5.229 7.80476,14.904 10.76521,21.5 13.88613,30.9388 32.53537,64.3106 48.89373,87.4927 2.91079,4.125 8.53496,12.7103 12.49814,19.0784 7.95583,12.7836 16.14387,24.0197 24.7196,33.9216 3.09618,3.575 10.94099,12.8 17.43291,20.5 6.49191,7.7 14.01388,15.9943 16.71549,18.4319 2.70161,2.4375 12.67397,11.959 22.16079,21.1588 13.59055,13.1795 17.24877,17.2766 17.24877,19.3182 0,1.4251 -0.44996,2.5911 -0.99993,2.5911 -0.54996,0 -0.99992,0.6269 -0.99992,1.393 0,3.485 -8.40119,3.5022 -13.52074,0.028 -10.56821,-7.1723 -44.70285,-40.9173 -62.63571,-61.9207 -19.81638,-23.2094 -24.93569,-29.9526 -35.49579,-46.7549 -5.2072,-8.2852 -11.37464,-17.5798 -13.70542,-20.6546 -12.30525,-16.2332 -34.94619,-56.8123 -48.31288,-86.5905 -2.96258,-6.6 -7.14655,-14.9631 -9.29773,-18.5846 -4.9963,-8.4114 -17.92014,-34.4482 -21.301825,-42.9154 -8.908955,-22.3067 -13.070369,-33.6094 -21.90657,-59.5 -5.443582,-15.95 -11.251358,-34.175 -12.90617,-40.5 -1.654802,-6.325 -4.785079,-16.9 -6.956155,-23.5 -4.263346,-12.9604 -9.004768,-35.5871 -13.935077,-66.5 -1.710528,-10.725 -3.734614,-22.2229 -4.49796,-25.5509 -0.763345,-3.328 -2.309405,-11.5418 -3.435695,-18.2529 -1.12628,-6.7111 -3.389159,-17.2632 -5.028612,-23.4491 -1.639453,-6.1859 -3.915261,-18.4471 -5.05735,-27.2471 -1.142088,-8.8 -2.52227,-19.15 -3.067081,-23 -0.544801,-3.85 -1.648913,-15.325 -2.453575,-25.5 -0.804663,-10.175 -1.930973,-21.2 -2.502922,-24.5 -0.571949,-3.3 -1.463126,-14.55 -1.980389,-25 -0.517263,-10.45 -1.432798,-23.275 -2.034525,-28.5 -2.788501,-24.2137 1.295858,-147.8081 6.625828,-200.5 0.83452,-8.25 2.349173,-23.78686 3.3659,-34.52636 1.698229,-17.93798 2.307086,-21.0946 7.484747,-38.80515 3.099879,-10.60334 7.448679,-23.41648 9.664002,-28.47364 2.215322,-5.05717 5.853033,-14.10042 8.083814,-20.09613 3.543857,-9.52488 21.908379,-45.7146 30.497178,-60.09872 14.382125,-24.08649 43.256977,-65.29258 67.005127,-95.62021 4.5739,-5.84111 8.31619,-11.05423 8.31619,-11.5847 0,-0.53047 -1.4624,-2.23364 -3.24977,-3.78481 -1.78737,-1.55117 -6.62453,-5.99223 -10.74923,-9.86902 C 125.82636,209.9981 119.10949,203.73345 105.87644,191.5 98.451966,184.63636 89.227623,176.06537 85.377898,172.45336 81.528172,168.84135 75.23054,162.9867 71.383154,159.44303 67.535768,155.89937 64.161009,152.7618 63.883689,152.47068 63.192728,151.74532 26.552778,118.02023 14.802225,107.29384 9.5566383,102.50546 4.0517804,97.63346 2.569216,96.46719 0.27536934,94.66272 -0.10436362,93.6502 0.02123744,89.67335 0.12307018,86.44928 0.78842279,84.40463 2.1667447,83.08017 c 1.7801732,-1.71062 2.4745037,-1.79235 6.3714561,-0.75 5.7545502,1.53921 6.4019342,1.48252 5.6434482,-0.49421 -0.431089,-1.12349 -0.256192,-1.42775 0.538401,-0.93662 0.668683,0.41329 1.435978,0.0523 1.776804,-0.83596 1.340334,-3.4931 6.984942,-1.0573 15.148981,6.53718 2.604554,2.42285 9.907714,9.12889 16.229254,14.90231 6.32153,5.77342 14.195969,13.00343 17.498753,16.06669 3.302775,3.06326 8.701311,8.01326 11.996746,11 3.295425,2.98674 8.920025,8.18429 12.49911,11.55011 13.374862,12.5779 45.026942,40.27941 69.502932,60.8281 3.29976,2.7703 7.79944,6.72301 9.99929,8.78379 2.19984,2.06079 4.37011,3.75173 4.82282,3.75766 0.45271,0.006 2.47757,-1.89524 4.49968,-4.22483 30.21998,-34.81508 65.20438,-64.96808 110.89845,-95.58321 21.45967,-14.37803 25.57265,-16.59916 69.26555,-37.40533 5.77459,-2.74981 12.52411,-5.80702 14.99893,-6.7938 2.47482,-0.98678 13.72402,-6.45153 24.99822,-12.14388 11.2742,-5.69236 24.32327,-11.62803 28.99793,-13.19038 4.67467,-1.56235 14.31699,-5.29187 21.42739,-8.28783 7.11039,-2.99595 17.90962,-6.76381 23.99829,-8.37302 6.08866,-1.60922 20.5676,-6.06186 32.1754,-9.89477 18.92535,-6.24916 23.21134,-7.27975 41.49704,-9.97833 11.2156,-1.65516 23.54172,-3.28407 27.39145,-3.61979 3.84973,-0.33573 13.07407,-1.25207 20.49854,-2.03632 10.17667,-1.07496 32.3259,-1.49135 89.99359,-1.69182 L 761.32975,0 775.82872,2.7081 c 7.97443,1.48946 20.9786,3.43487 28.89804,4.32313 7.91954,0.88826 17.81883,2.22852 21.99843,2.97835 16.942,3.0394 51.32125,11.53945 60.65288,14.99602 37.30484,13.81824 46.90886,17.75089 62.93822,25.77186 9.89929,4.95354 23.39833,11.37144 29.99786,14.26199 6.59953,2.89056 18.74867,8.41563 26.99805,12.27794 8.2495,3.86231 19.7236,8.7938 25.4982,10.95886 5.7746,2.16506 15.8989,6.43096 22.4984,9.47978 6.5996,3.04882 17.6065,7.88128 24.4598,10.73881 23.1227,9.64113 33.9629,16.25049 67.0337,40.87107 53.0202,39.4725 52.6433,39.15299 67.989,57.62336 6.4022,7.7059 14.0553,16.62773 17.0067,19.82629 6.8293,7.40116 13.912,16.22478 18.4077,22.93228 4.0501,6.04248 12.234,16.29746 21.5877,27.05088 3.6277,4.1705 11.5042,15.80753 17.826,26.33668 6.2296,10.37553 13.5274,22.0146 16.2173,25.8646 2.6899,3.85 7.4397,12.625 10.5551,19.5 3.1155,6.875 9.6543,20.69224 14.5307,30.70498 4.8764,10.01274 8.8661,18.41773 8.8661,18.67775 0,0.26003 2.6573,6.73758 5.905,14.39456 3.2479,7.65698 6.8331,17.25199 7.9671,21.32225 6.5574,23.53608 14.8267,57.70106 17.6449,72.90046 1.7847,9.625 4.1702,22.225 5.3012,28 9.3453,47.71734 11.3837,59.38971 12.707,72.76255 0.8307,8.3944 2.9081,23.2444 4.6166,33 2.7826,15.88829 3.1558,20.42883 3.5796,43.55365 0.3942,21.5191 0.1836,27.5114 -1.2657,36 -0.9563,5.6011 -1.8321,12.8838 -1.9464,16.1838 -0.5405,15.6178 -2.9434,47.8672 -5.6627,76 -2.803,28.9981 -3.0171,34.2934 -3.3156,82 -0.1755,28.05 -0.645,77.325 -1.0436,109.5 -0.6895,55.6672 -0.6229,59.3716 1.377,76.5 1.1559,9.9 2.6,28.9044 3.2092,42.232 0.9487,20.7598 0.8725,26.7404 -0.5323,41.7384 -0.9018,9.6285 -1.3422,19.0921 -0.9786,21.0302 0.5824,3.105 0.4485,3.4423 -1.126,2.838 -1.3866,-0.5321 -1.6432,-0.3107 -1.145,0.9878 0.3532,0.9205 0.2545,1.6736 -0.2193,1.6736 -1.5047,0 -2.0377,2.8911 -0.7831,4.248 8.2915,8.968 8.9598,15.7173 5.3494,54.0276 -3.1758,33.7 -6.0097,57.223 -8.0987,67.2244 -0.8041,3.85 -2.6084,14.65 -4.0095,24 -1.4011,9.35 -3.702,21.95 -5.1132,28 -1.4112,6.05 -3.4521,16.175 -4.5352,22.5 -2.385,13.9268 -5.6148,24.9379 -11.5505,39.378 -2.4593,5.9829 -5.5449,14.5822 -6.8567,19.1095 -3.0417,10.4968 -11.5729,26.5077 -20.2199,37.9477 -5.2442,6.9379 -8.7653,10.3648 -15.7531,15.3312 -14.4232,10.2509 -30.4856,25.0688 -45.039,41.5494 -12.9043,14.6132 -14.0586,16.8657 -19.9737,38.978 -2.5736,9.6208 -3.5034,21.9144 -2.0126,26.6118 0.8383,2.6412 -2.8446,8.0944 -5.4665,8.0944 -1.0233,0 -3.4187,-1.4697 -5.3233,-3.266 z m 33.5008,-163.7034 c 0.3754,-0.017 0.9716,-0.9414 1.3249,-2.0546 0.3533,-1.1132 3.0087,-4.6007 5.9008,-7.75 8.5805,-9.3435 29.0994,-35.5586 36.4159,-46.5251 8.3285,-12.4834 19.9772,-32.8237 24.5085,-42.7955 4.785,-10.5301 13.4301,-33.7827 15.9017,-42.7707 1.9014,-6.9141 2.1389,-10.95 2.5159,-42.7595 l 0.4165,-35.1247 -3.0863,-12.4029 c -1.6974,-6.8216 -3.0862,-13.1737 -3.0862,-14.1157 0,-2.8372 -10.8099,-30.7275 -14.4178,-37.1991 -1.8499,-3.318 -5.1988,-9.3334 -7.4424,-13.3676 -2.2434,-4.0341 -7.3545,-11.0036 -11.358,-15.4878 -4.0034,-4.4842 -8.8538,-9.9563 -10.7787,-12.1601 -8.8127,-10.0899 -20.2149,-19.796 -26.6112,-22.6528 -2.2621,-1.0104 -8.1116,-2.7897 -12.9991,-3.9542 -10.38,-2.4731 -12.1973,-2.1057 -21.8853,4.4239 -10.6089,7.1503 -27.9537,20.2246 -37.6058,28.3467 -5.165,4.3463 -12.9006,10.5279 -17.1904,13.7369 -6.1423,4.5949 -9.8976,8.6232 -17.6744,18.9584 -5.4312,7.2181 -11.7475,15.1488 -14.0363,17.6238 -9.9418,10.7506 -21.3304,24.8464 -23.4306,29 -2.5207,4.9854 -8.5633,22.9464 -11.0873,32.9557 -1.9273,7.6433 -3.9329,11.7914 -6.8401,14.1471 -1.7927,1.4527 -2.0869,2.6375 -1.8773,7.5599 0.2727,6.4049 3.0752,18.2274 6.7172,28.3373 10.2237,28.3795 14.3439,38.5937 21.379,53 8.5519,17.5121 18.4597,34.286 24.5691,41.5952 2.0374,2.4377 6.0392,6.165 8.8929,8.2829 2.8536,2.1179 8.5632,7.2951 12.6879,11.5049 4.1247,4.2098 10.8742,9.9792 14.999,12.8208 4.1247,2.8415 9.9742,7.0174 12.999,9.2797 3.0248,2.2623 9.3244,6.0519 13.999,8.4214 4.6747,2.3695 10.0461,5.4977 11.9366,6.9516 6.4665,4.9734 7.0904,5.1491 16.5614,4.6649 4.9496,-0.2531 9.3065,-0.4739 9.6819,-0.4908 z m -66.7568,-65.4205 c -15.4433,-4.0879 -25.4034,-10.2268 -33.6253,-20.7248 -9.6769,-12.3559 -14.615,-27.1552 -18.8139,-56.3853 -2.4879,-17.3196 -4.31,-25.6365 -9.0473,-41.2957 -2.7114,-8.9626 -4.9198,-17.5126 -4.9076,-19 l 0.022,-2.7043 1.9007,2.4737 c 2.1975,2.8602 4.7302,8.2771 12.636,27.0263 6.9046,16.3749 6.6353,15.4849 11.0416,36.5 7.6861,36.6576 14.9564,50.463 30.6612,58.2219 17.2776,8.5359 46.0846,9.1501 53.3357,1.1372 1.4862,-1.6423 1.8724,-3.646 1.8724,-9.7141 0,-8.6428 -1.147,-11.1739 -11.419,-25.1992 -3.0689,-4.1903 -7.8297,-11.783 -10.5795,-16.8728 -6.8607,-12.6991 -11.8519,-17.6254 -24.3756,-24.0589 -10.9732,-5.6369 -14.259,-9.0063 -15.6168,-16.0141 -0.373,-1.925 -1.5391,-6.3599 -2.5913,-9.8553 -1.9226,-6.387 -2.4031,-12.7143 -1.2829,-16.8947 1.0271,-3.8326 1.997,-2.5298 3.7223,5 2.4773,10.8118 6.5201,23.9079 8.147,26.391 0.7896,1.2052 5.2685,4.1084 9.9531,6.4515 13.2987,6.6518 16.5092,9.9736 25.5221,26.4075 1.8098,3.3 6.2522,10.5 9.872,16 3.6197,5.5 8.2839,13.2867 10.3647,17.3038 3.4027,6.5687 3.7835,8.0666 3.7835,14.8819 0,7.283 -0.1289,7.6996 -3.3094,10.6962 -1.8202,1.715 -7.1073,5.093 -11.7492,7.5067 -7.8212,4.067 -9.0994,4.4156 -17.4391,4.7566 -7.166,0.293 -10.8488,-0.1216 -18.0777,-2.0351 z m -48.0685,-146.6058 c 1.6882,-8.4412 8.0594,-12.0043 21.4651,-12.0043 h 9.1836 l -0.1498,3.75 c -0.1206,3.0164 -0.2314,3.2121 -0.5664,1 -0.2362,-1.5598 -1.0509,-2.75 -1.8823,-2.75 -3.34,0 -17.6671,6.3813 -21.4803,9.5672 -5.2527,4.3889 -7.3886,4.531 -6.5699,0.4371 z M 793.82744,1529.912 c -2.47483,-0.7999 -10.12428,-2.751 -16.99879,-4.336 -6.87451,-1.5849 -19.24863,-5.4565 -27.49804,-8.6035 -20.95151,-7.9926 -29.26452,-10.7762 -50.76729,-16.9993 -22.33381,-6.4636 -26.10064,-8.2102 -39.40889,-18.2738 -34.19617,-25.8588 -33.36542,-25.1063 -45.51146,-41.2237 -4.75646,-6.3116 -12.13624,-15.7507 -16.39953,-20.9757 -10.61345,-13.0076 -17.79163,-29.1183 -20.52344,-46.0628 -1.89017,-11.7243 -1.56549,-43.5799 0.55996,-54.9372 1.22021,-6.5202 2.03306,-17.969 2.59122,-36.5 0.65215,-21.651 1.22351,-28.7656 2.88409,-35.9123 1.13902,-4.9018 2.67481,-9.6268 3.41286,-10.5 0.73804,-0.8732 2.7131,-5.1877 4.38888,-9.5877 4.2223,-11.086 4.2901,-11.3315 3.22677,-11.686 -1.71737,-0.5725 0.91174,-7.0666 4.2909,-10.5986 10.56905,-11.0471 45.73064,-37.78 60.26241,-45.8167 14.43047,-7.9807 42.23739,-20.6356 50.4667,-22.9675 4.69097,-1.3292 18.20341,-4.1966 30.02756,-6.372 11.82416,-2.1754 27.12307,-5.155 33.99758,-6.6215 11.79126,-2.5153 13.57513,-2.6355 31.49776,-2.121 10.44925,0.2999 21.47347,1.0734 24.49825,1.7188 3.02479,0.6454 11.57418,3.9771 18.99865,7.4039 7.42447,3.4267 17.32377,7.7672 21.99843,9.6455 8.02183,3.2232 9.20595,4.1175 21.0729,15.9151 10.42066,10.3598 13.55694,14.2121 18.3177,22.5 3.15937,5.5 9.20054,15.0253 13.42474,21.1674 10.14338,14.7488 16.41133,26.7938 21.38548,41.0962 5.13843,14.775 5.72029,20.38 2.7918,26.8949 -2.39583,5.33 -2.867,15.1028 -1.02863,21.3349 0.56676,1.9214 1.02633,5.5214 1.02123,8 -0.013,6.4553 -6.28105,29.6841 -10.57685,39.1991 -2.01095,4.4542 -5.13083,13.7885 -6.9329,20.743 -3.41646,13.1843 -6.88981,20.788 -13.73353,30.0645 -4.95894,6.7219 -28.25508,29.9416 -47.6562,47.5 -7.90034,7.15 -19.76659,18.0623 -26.36952,24.2496 -11.2994,10.5881 -16.26744,14.2504 -19.33133,14.2504 -1.69348,0 -3.69623,-3.7367 -2.98968,-5.5781 0.30008,-0.7821 0.10979,-1.4219 -0.42297,-1.4219 -2.24064,0 -0.69495,-5.1634 2.89189,-9.6602 4.10551,-5.1471 7.32458,-8.2372 21.63776,-20.7711 14.83904,-12.9943 47.40332,-44.5425 54.26184,-52.5687 9.06575,-10.6092 12.76059,-17.775 16.30693,-31.626 1.67218,-6.5307 4.55678,-15.249 6.41025,-19.374 3.16097,-7.035 10.05448,-26.8632 12.51051,-35.9849 0.60355,-2.2415 1.48969,-3.8329 1.96926,-3.5365 1.3635,0.8427 1.96666,-3.9731 2.12634,-16.9786 0.13299,-10.8288 -0.11529,-12.6832 -2.54391,-19 -1.4802,-3.85 -3.71664,-10.15 -4.96985,-14 -3.67684,-11.2959 -12.10064,-26.0193 -23.8332,-41.6568 -3.03029,-4.0388 -7.61686,-10.9432 -10.19248,-15.3432 -5.5307,-9.4482 -19.89568,-24.5614 -26.54751,-27.93 -2.47482,-1.2534 -6.74952,-3.0877 -9.49932,-4.0763 -2.7498,-0.9886 -11.07421,-4.6176 -18.49868,-8.0644 l -13.49904,-6.267 -13.9794,-1.2084 c -17.61965,-1.5231 -23.29665,-1.0217 -51.84711,4.5789 -52.79924,10.3575 -51.9556,10.0971 -83.00719,25.6243 -19.85798,9.93 -46.87756,29.1017 -69.18897,49.0929 -2.30184,2.0625 -4.68697,3.75 -5.30022,3.75 -2.32634,0 -4.04581,4.8398 -5.15174,14.5 -0.62965,5.5 -1.82827,14.275 -2.66361,19.5 -1.18181,7.3919 -1.3665,13.6053 -0.83264,28 0.59766,16.1128 0.40107,20.5518 -1.52369,34.4007 -1.86807,13.4412 -2.14395,19.0869 -1.78387,36.5 l 0.42597,20.5993 3.73823,11 c 4.48978,13.2114 6.66503,17.0813 15.30691,27.2311 3.63814,4.2729 10.59035,13.0271 15.4495,19.4538 9.21484,12.1876 10.13738,13.0684 28.87004,27.5654 21.62746,16.7372 26.29883,19.5044 39.02073,23.1153 20.84281,5.9157 40.22763,12.2566 58.74441,19.2158 10.04899,3.7767 21.97314,7.6044 26.49811,8.506 8.87547,1.7685 26.53921,7.0795 28.31789,8.5144 0.60055,0.4845 1.3543,0.6185 1.67488,0.2979 0.32057,-0.3207 0.88483,1.4302 1.25381,3.8908 0.56866,3.7925 0.32417,4.8724 -1.60529,7.0916 -1.85777,2.1369 -3.11568,2.6056 -6.84531,2.551 -2.51322,-0.037 -6.59423,-0.7213 -9.06905,-1.5211 z m 231.40286,-14.8949 c -1.2983,-1.9816 -1.4125,-3.0977 -0.5654,-5.5279 1.336,-3.8328 16.7323,-29.4019 18.6752,-31.0144 0.7938,-0.6589 -0.3994,2.7897 -2.6517,7.6636 -4.6958,10.1616 -9.8778,22.9556 -9.8778,24.3876 0,1.7753 3.4333,0.9933 8.5661,-1.9509 3.803,-2.1815 6.3966,-4.8598 10.4012,-10.7407 9.2769,-13.6232 14.5353,-18.0413 20.035,-16.8333 3.1936,0.7015 9.9226,7.4881 12.5272,12.6345 3.1695,6.2622 6.4494,9.8644 8.9823,9.8644 3.7823,0 9.2381,-5.4469 10.3296,-10.3128 l 0.9393,-4.1872 0.1071,4.2821 c 0.2089,8.3575 -4.9267,15.2179 -11.3921,15.2179 -4.3336,0 -7.652,-2.8197 -12.0977,-10.2799 -4.7874,-8.0339 -8.2348,-11.7201 -10.9604,-11.7201 -2.4521,0 -8.6461,6.253 -12.382,12.5 -4.772,7.9795 -9.2298,12.5585 -15.1218,15.5331 -7.582,3.8276 -13.2085,4.0032 -15.5141,0.484 z m 64.5761,-56.6813 c -1.3749,-0.5706 -5.6496,-1.6017 -9.4994,-2.2913 l -6.9995,-1.254 4.3148,-1.2013 c 5.0621,-1.4094 9.0507,-0.425 13.684,3.3772 3.1702,2.6016 2.6387,3.0869 -1.4999,1.3694 z M 447.31346,1409.485 c -2.77107,-0.3933 -6.5958,-1.5185 -8.4994,-2.5005 -7.26098,-3.7457 -23.65499,-15.4867 -28.11287,-20.1338 -8.06169,-8.4039 -17.21917,-24.2422 -25.24322,-43.6595 -8.15854,-19.7427 -18.06382,-36.6389 -29.26613,-49.9216 -2.65809,-3.1516 -13.96593,-14.5736 -25.12854,-25.3821 -11.79277,-11.4187 -21.14262,-21.3121 -22.31728,-23.6148 -1.88021,-3.6858 -1.90675,-4.09 -0.37927,-5.7779 4.61205,-5.0966 9.2866,-3.2072 22.04343,8.9099 4.97701,4.7274 14.15941,13.3061 20.40534,19.0637 23.79193,21.9318 37.20949,41.2504 50.3762,72.5316 7.99588,18.9964 15.76356,32.0578 23.12679,38.8877 1.11931,1.0382 6.72428,4.9982 12.4555,8.7999 12.87917,8.5432 14.98871,8.7081 16.78477,1.3124 0.66784,-2.75 1.49588,-7.2135 1.84008,-9.9189 0.41619,-3.2712 0.90877,-4.4611 1.47047,-3.5521 0.92106,1.4904 1.4337,-0.1455 2.35935,-7.529 1.13776,-9.0754 3.71731,-22.7471 4.98758,-26.4344 1.76869,-5.134 7.06337,-13.0888 17.34542,-26.0598 4.57527,-5.7719 10.10546,-13.9289 12.28932,-18.1269 8.12032,-15.6095 13.69633,-37.2262 17.95742,-69.6165 1.10253,-8.3806 3.36226,-20.4667 5.02155,-26.8579 3.54134,-13.6401 3.60174,-15.6228 1.01712,-33.4045 -1.07922,-7.425 -1.99045,-15.525 -2.02495,-18 -0.035,-2.475 -0.66515,-6.075 -1.4015,-8 -12.30323,-32.1648 -15.87797,-40.1618 -21.9035,-49 -5.47313,-8.0279 -30.25372,-36.3473 -36.79699,-42.0519 -9.69276,-8.4503 -31.3478,-24.4618 -51.36497,-37.9788 -15.96005,-10.7773 -29.30077,-21.7862 -45.48533,-37.5349 -9.08064,-8.8361 -19.88502,-18.6895 -24.00972,-21.8965 -9.3777,-7.2911 -17.75077,-15.2681 -19.45841,-18.5379 -0.71808,-1.375 -1.63377,-4.922 -2.03485,-7.8823 l -0.72923,-5.3823 3.79832,0.7126 c 3.49574,0.6559 11.55962,5.3433 12.88689,7.491 0.31039,0.5023 4.04558,3.3576 8.30043,6.3451 10.88439,7.6425 14.65089,10.9259 32.5132,28.3434 16.08512,15.6845 25.13085,22.8844 55.2172,43.95 21.40491,14.987 35.89834,26.5485 45.50669,36.3007 7.57579,7.6892 9.40505,9.7277 18.49047,20.6059 2.74886,3.2913 5.81457,6.8913 6.8126,8 7.91183,8.789 18.03721,25.5706 22.28361,36.9325 1.4561,3.8959 4.62107,12.1417 7.0332,18.324 3.49935,8.9688 4.59247,13.3143 5.40841,21.5 0.56246,5.6427 1.73788,15.2094 2.61212,21.2594 1.94186,13.4393 1.3498,22.9246 -2.15365,34.5 -1.415,4.675 -3.47035,15.1845 -4.56737,23.3544 -5.26073,39.1759 -12.85239,64.305 -25.18851,83.376 -5.81928,8.9964 -10.18204,13.1758 -21.76998,20.8551 -5.24031,3.4728 -10.55348,7.4059 -11.80703,8.7404 -4.48387,4.7732 -4.84616,20.5853 -0.65727,28.6863 2.4678,4.7725 3.0322,17.3674 1.1132,24.8418 -3.20606,12.4874 -9.26281,16.8192 -21.15671,15.131 z m 325.81545,-7.9436 c -6.74622,-4.1137 -15.72408,-18.3897 -21.98013,-34.9512 -1.65569,-4.3831 -2.60662,-9.4523 -3.00739,-16.0317 -0.55646,-9.1334 -0.44247,-9.9152 2.24544,-15.4049 3.35636,-6.8553 27.73042,-33.0679 28.25229,-30.3835 0.40907,2.1045 -4.12731,11.561 -7.0661,14.7299 -8.392,9.049 -16.8683,19.6518 -17.39806,21.7627 -0.34328,1.3678 -0.35397,6.1432 -0.024,10.6121 0.96693,13.0893 8.91867,31.2362 17.92593,40.9092 l 4.39148,4.716 h 10.21147 c 11.52138,0 15.74798,-1.2635 20.89652,-6.2468 3.02788,-2.9308 3.24976,-3.6014 3.24976,-9.8223 0,-6.1462 -0.43516,-7.5103 -5.47621,-17.1653 -8.58398,-16.4406 -10.34046,-26.8101 -6.8946,-40.7017 3.58824,-14.4651 8.434,-19.7007 21.84184,-23.5987 3.46325,-1.0069 7.11009,-2.8936 8.73618,-4.5198 3.47165,-3.472 3.64294,-8.2197 0.79144,-21.9454 -1.08542,-5.225 -1.94176,-11.3 -1.90286,-13.5 0.07,-3.9454 0.13049,-3.8771 4.45088,5 8.87917,18.244 9.58782,30.8178 2.18404,38.7498 -4.38018,4.6927 -7.05079,6.1542 -15.04662,8.2346 -8.68089,2.2586 -12.85519,5.9865 -15.07543,13.4631 -3.23897,10.9077 -1.65818,21.5377 6.02527,40.5166 4.63417,11.4471 5.17143,20.2053 1.55069,25.282 -3.53115,4.9511 -10.39316,8.4209 -20.60173,10.4175 -11.65387,2.2792 -14.37178,2.261 -18.2802,-0.1222 z m -455.9948,-9.4654 c -3.98406,-3.3526 -6.46178,-9.398 -11.30882,-27.5927 -2.21761,-8.3243 -5.22559,-18.1385 -6.68442,-21.8092 -4.70587,-11.8411 -14.60434,-27.1896 -21.21001,-32.8881 -5.61471,-4.8437 -9.97643,-1.8078 -13.21498,9.1979 -1.13549,3.8589 -2.83975,9.639 -3.78723,12.8448 l -1.72269,5.8286 -3.05131,-2.5676 c -3.06292,-2.5775 -6.28847,-10.186 -6.28847,-14.8334 0,-3.7033 3.79702,-13.8477 6.82825,-18.2429 3.59792,-5.2168 8.23554,-8.2506 13.91427,-9.1023 8.29267,-1.2436 15.34224,2.902 24.50769,14.4123 12.89911,16.1991 18.38611,27.575 24.68436,51.1766 1.68787,6.325 4.18483,15.55 5.54881,20.5 3.04821,11.0623 2.51417,14.8373 -2.16487,15.3029 -2.1084,0.2099 -3.96841,-0.4747 -6.05058,-2.2269 z m -65.58494,-69.7635 c -0.3192,-0.7977 -0.55614,-0.5608 -0.60411,0.6042 -0.0434,1.0541 0.19291,1.6448 0.52518,1.3125 0.33226,-0.3323 0.36778,-1.1948 0.0789,-1.9167 z m 505.3099,-82.7734 c -0.80904,-0.5117 -1.13582,-1.2655 -0.72615,-1.6752 0.40957,-0.4097 1.50539,0.016 2.43513,0.9456 1.80727,1.8074 0.72535,2.2692 -1.70898,0.7296 z m 68.56112,-11.3122 c -4.99785,-8.5465 -10.30637,-13.622 -20.09357,-19.2115 -9.30404,-5.3135 -16.9076,-7.8603 -30.26655,-10.1375 -17.96732,-3.0629 -29.18962,-0.5566 -35.30378,7.8844 -2.64211,3.6475 -3.01399,4.9423 -2.7926,9.7228 0.14049,3.0332 -0.16919,5.4814 -0.68825,5.4404 -1.80278,-0.1424 -5.44342,-6.739 -5.42152,-9.8234 0.029,-4.1418 3.06128,-10.4793 6.60143,-13.7985 7.33138,-6.8737 20.31395,-9.1549 36.37351,-6.3911 15.97626,2.7494 26.89638,7.2412 38.62755,15.8886 7.31158,5.3896 10.21677,9.0122 14.40407,17.9609 4.2208,9.0203 3.30737,10.5836 -1.44029,2.4649 z M 543.84524,1086.107 c 0,-0.7662 0.73585,-1.6754 1.63519,-2.0205 2.89069,-1.1094 1.23881,-11.5684 -4.00332,-25.347 -4.79156,-12.5944 -5.49391,-16.821 -3.41586,-20.5552 1.14762,-2.0622 1.25461,-1.9607 1.91457,1.8157 0.38437,2.2 3.26477,10.2407 6.40094,17.8681 4.67517,11.3706 5.72599,14.9898 5.83499,20.0961 0.085,3.9843 -0.36148,6.8238 -1.23942,7.8819 -1.69338,2.0407 -7.12709,2.2396 -7.12709,0.2609 z m -24.28727,-73.1742 c -4.90305,-4.5466 -6.08726,-8.1087 -6.52293,-19.6198 -0.39318,-10.3876 -0.33268,-10.7588 2.15834,-13.25 3.27077,-3.2711 8.73108,-3.4852 11.75507,-0.461 2.7223,2.7225 7.14409,12.3896 6.70002,14.648 -0.24298,1.236 -1.4588,0.075 -4.13951,-3.9537 -4.28379,-6.4376 -7.23828,-8.0566 -9.43263,-5.1689 -1.79487,2.3622 -1.03752,16.3241 1.31391,24.2212 0.87594,2.9418 1.4278,5.5135 1.22641,5.7149 -0.20138,0.2014 -1.57778,-0.7574 -3.05868,-2.1307 z m -17.89452,-311.335 c -2.51682,-1.5963 -4.90625,-3.4367 -5.30993,-4.0899 -0.40367,-0.6531 -5.29455,-4.1269 -10.86866,-7.7194 -13.6625,-8.8056 -19.89442,-14.2798 -26.6885,-23.44359 -11.76225,-15.86487 -25.63195,-47.5613 -36.96488,-84.47585 C 410.16886,543.88063 409.38411,540.09749 409.4126,522 c 0.0262,-16.63656 1.60981,-25.79605 5.5284,-31.97547 3.0975,-4.88459 5.49223,-6.17815 3.95583,-2.1368 -2.04129,5.36938 -3.04342,21.39019 -1.98859,31.79097 1.18419,11.67615 2.51936,17.43931 7.02467,30.3213 1.7312,4.95 6.20599,18 9.94398,29 11.20925,32.9861 25.40731,65.57848 33.97016,77.98022 4.52171,6.5489 11.8656,13.18499 22.48325,20.31638 5.48926,3.6869 12.06169,8.5452 14.60541,10.7963 l 4.62487,4.0928 12.94828,0.6837 12.94828,0.6836 12.73899,-6.0214 c 14.16839,-6.697 17.74284,-8.9016 23.9163,-14.75005 16.43593,-15.5709 29.71288,-34.01292 33.6368,-46.72238 1.02883,-3.33254 3.13168,-12.13417 4.67287,-19.55917 2.59202,-12.48715 2.8066,-15.26311 2.8602,-37 l 0.058,-23.5 -6.41254,-18.91943 c -5.75739,-16.98626 -6.88121,-19.4466 -10.99922,-24.07861 -2.52272,-2.83755 -8.59229,-10.88206 -13.48814,-17.8767 -10.45085,-14.9311 -24.71064,-29.13988 -33.90048,-33.77924 -5.6414,-2.84794 -6.30535,-2.95121 -16.03906,-2.49438 -13.19306,0.61917 -24.66954,2.04744 -32.15251,4.00145 -3.29976,0.86165 -11.75573,2.48895 -18.79103,3.61623 -12.62494,2.0229 -34.77358,8.56435 -38.984,11.51365 -2.27725,1.59516 -5.72045,2.0507 -5.72045,0.75681 0,-0.41812 1.15341,-2.00421 2.56314,-3.52464 2.43803,-2.62949 6.03504,-4.60711 14.88519,-8.1838 2.17212,-0.87783 6.25129,-3.37217 9.06484,-5.54296 5.65558,-4.36356 10.45453,-6.3429 17.98366,-7.41744 2.74981,-0.39244 9.25401,-1.80645 14.45377,-3.14224 5.43532,-1.39628 12.31933,-2.4287 16.19435,-2.4287 6.36965,0 6.81182,-0.15112 8.04573,-2.75 1.59728,-3.36446 7.07249,-6.24636 11.87105,-6.24845 13.10877,-0.006 30.38754,10.79917 46.67598,29.18786 9.88989,11.16508 11.33019,13.24607 21.84114,31.55611 7.13399,12.42724 8.53019,15.68203 10.93922,25.5 1.51889,6.18996 4.04571,15.47232 5.6152,20.62747 2.73711,8.99014 2.853,10.19509 2.8354,29.5 -0.035,38.23171 -5.72949,63.04778 -19.10274,83.24527 -10.07408,15.21483 -27.73832,32.82674 -39.41079,39.29404 -4.37989,2.4267 -11.281,6.3632 -15.33581,8.7477 -10.22867,6.0152 -15.3927,7.34 -28.61076,7.34 -10.55665,0 -11.35449,-0.1475 -15.69798,-2.9022 z M 542.10677,610.25 c -1.14792,-1.2375 -6.34795,-11.07815 -11.55558,-21.8681 -5.20763,-10.78996 -9.8693,-19.86586 -10.35926,-20.16868 -1.01583,-0.62785 -5.56381,2.71994 -17.50476,12.88521 -15.51232,13.20556 -21.83744,15.14414 -21.83744,6.69292 0,-3.27721 0.96754,-4.59388 9.7493,-13.26727 5.36212,-5.29594 12.81149,-12.02851 16.55413,-14.96126 3.74263,-2.93276 6.58373,-5.83415 6.31345,-6.44755 -5.23503,-11.88323 -7.60206,-19.12426 -8.14932,-24.9298 -0.63646,-6.75321 -0.66176,-6.80067 -2.8056,-5.2732 -1.18982,0.84773 -4.01552,2.39985 -6.27936,3.44915 -4.16978,1.93276 -5.09464,2.93207 -10.47636,11.31963 -2.87328,4.47807 -3.1324,4.63612 -5.97583,3.64482 -3.54363,-1.23541 -5.02339,-3.61925 -4.29194,-6.9142 0.42368,-1.90854 0.31186,-2.09874 -0.53599,-0.91167 -0.87437,1.22419 -1.07417,1.03034 -1.08667,-1.05422 -0.0351,-5.85969 9.78797,-16.96432 16.70617,-18.88565 5.35625,-1.48754 8.17334,-1.2901 13.0264,0.91294 4.07641,1.85046 5.42111,4.18485 3.20117,5.55694 -1.4196,0.87743 0.76265,3.46998 2.92079,3.47002 0.89514,2e-5 2.8025,1.47272 4.2385,3.27268 2.34233,2.93572 24.15918,46.27208 35.59967,70.71385 l 4.44038,9.48657 -3.09258,2.76343 c -3.75103,3.35177 -6.04247,3.48547 -8.79927,0.51344 z m 5.36101,-38.22375 c -1.3979,-1.29568 -2.8057,-3.63164 -3.12817,-5.19102 -0.32258,-1.55938 -1.4937,-6.15499 -2.60232,-10.21248 -3.79023,-13.87091 -3.33136,-18.12275 1.95606,-18.12275 4.91135,0 9.07116,5.72932 12.26223,16.88887 3.16877,11.08151 2.39083,15.30885 -3.27857,17.81435 -2.33283,1.03097 -2.98628,0.88335 -5.20923,-1.17697 z M 1249.7265,329.0605 c -8.5507,-2.35972 -18.445,-8.54689 -41.9499,-26.23246 -28.4818,-21.43023 -39.2917,-28.93833 -48.4752,-33.66867 -9.8137,-5.05499 -23.626,-10.6985 -24.644,-10.06923 -0.4698,0.29034 -0.8542,0.0875 -0.8542,-0.45076 0,-0.53825 -2.3623,-1.74935 -5.2496,-2.69133 -2.8873,-0.94198 -5.6996,-2.02985 -6.2495,-2.41749 -0.55,-0.38764 -3.9248,-1.72933 -7.4995,-2.98154 -3.5748,-1.2522 -7.9174,-2.9005 -9.6504,-3.66288 -1.7331,-0.76238 -3.9829,-1.40045 -4.9997,-1.41794 -1.0168,-0.0175 -2.6571,-0.6449 -3.6451,-1.39423 -0.9879,-0.74933 -2.7457,-1.11414 -3.906,-0.81067 -1.2807,0.33493 -1.8649,0.15548 -1.4866,-0.45666 0.3453,-0.55872 -1.2571,-1.61354 -3.5934,-2.36544 -2.3191,-0.74637 -7.1414,-2.8783 -10.7161,-4.73761 -11.7785,-6.1263 -21.865,-9.41281 -29.2204,-9.52085 -3.6971,-0.0543 -6.2314,-0.40199 -5.6316,-0.77264 1.2555,-0.776 -11.5449,-1.45779 -57.14147,-3.04356 -39.55218,-1.37555 -50.73398,-0.88677 -60.99565,2.66627 -12.7109,4.40105 -37.28785,10.34357 -49.68856,12.01428 -9.8221,1.32331 -17.69084,1.47981 -46.80457,0.9309 -28.77525,-0.54253 -37.57532,-0.37421 -49.49647,0.94673 -10.89373,1.2071 -22.95277,1.56252 -48.49655,1.42936 -39.11171,-0.20389 -32.52368,-1.15056 -82.99409,11.92594 -34.02128,8.81464 -42.22809,11.5577 -57.4803,19.21217 -5.6236,2.82223 -10.43046,4.92553 -10.68204,4.67398 -0.67256,-0.67263 13.37214,-8.24595 21.53486,-11.61222 9.08516,-3.7467 19.02965,-6.74135 43.12773,-12.98737 10.72424,-2.77962 23.54832,-6.18903 28.49797,-7.57645 18.2768,-5.12313 25.36589,-5.77949 60.49569,-5.60115 24.16898,0.12269 36.08543,-0.24418 46.49669,-1.43149 11.51088,-1.31272 20.21926,-1.47888 48.99651,-0.9349 35.26629,0.66665 44.08836,0.22282 59.66885,-3.00188 13.75582,-2.84706 22.96586,-5.83771 28.55807,-9.27331 9.25704,-5.68703 14.51686,-8.00759 20.77072,-9.16376 11.1715,-2.06532 91.37691,-0.62082 110.91201,1.99753 10.0184,1.3428 21.9387,5.08653 31.5725,9.91567 4.1247,2.06761 16.7238,7.23137 27.998,11.47501 44.8807,16.8932 67.3296,26.93554 84.108,37.62495 8.8495,5.63803 32.6042,22.32506 41.883,29.42166 7.4065,5.66465 16.236,9.99228 25.1519,12.32774 10.0078,2.62148 14.8452,4.75589 14.8452,6.55015 0,0.82412 -2.2868,2.64708 -5.0818,4.05103 -5.6229,2.82442 -10.6552,3.13589 -17.985,1.11312 z"
     id="path8987" />
</svg>
