<?xml version="1.0" encoding="UTF-8" standalone="no"?>
<svg
   xmlns:dc="http://purl.org/dc/elements/1.1/"
   xmlns:cc="http://creativecommons.org/ns#"
   xmlns:rdf="http://www.w3.org/1999/02/22-rdf-syntax-ns#"
   xmlns:svg="http://www.w3.org/2000/svg"
   xmlns="http://www.w3.org/2000/svg"
   viewBox="0 0 506.75607 440.10938"
   height="440.10938"
   width="506.75607"
   id="svg898"
   version="1.1">
  <metadata
     id="metadata904">
    <rdf:RDF>
      <cc:Work
         rdf:about="">
        <dc:format>image/svg+xml</dc:format>
        <dc:type
           rdf:resource="http://purl.org/dc/dcmitype/StillImage" />
        <dc:title></dc:title>
      </cc:Work>
    </rdf:RDF>
  </metadata>
  <defs
     id="defs902" />
  <path
     id="path908"
     d="m 328.63808,427.21952 c -2.32174,-7.0125 -5.04768,-17.475 -6.05765,-23.25 -1.00997,-5.775 -2.97422,-15 -4.36499,-20.5 -4.73882,-18.74035 -9.80901,-43.16028 -10.71119,-51.5891 -0.49514,-4.626 -1.40116,-10.8859 -2.01337,-13.9109 -1.27476,-6.2987 -0.48388,-102.86038 0.95888,-117.07502 0.51305,-5.05475 0.48564,-8.87485 -0.0685,-9.54959 -0.9925,-1.20843 0.52038,-18.27424 2.16086,-24.37539 0.5176,-1.925 0.9436,-4.66035 0.94666,-6.07856 0.007,-3.23824 -5.21484,-11.23014 -9.18469,-14.05692 -2.79752,-1.99202 -3.39331,-2.05355 -8.65701,-0.89411 -3.10899,0.68483 -7.76536,2.42149 -10.34748,3.85927 -4.77829,2.66063 -7.07403,2.40532 -5.19254,-0.57746 2.11042,-3.34571 6.08571,-5.28385 14.13022,-6.88915 l 8.24293,-1.64488 3.7849,2.62294 c 2.08169,1.44261 5.34643,5.19945 7.25497,8.34853 4.04434,6.67313 4.36007,10.64952 1.77147,22.31034 -1.10472,4.97645 -1.86207,14.58471 -2.25083,28.55576 l -0.5859,21.05576 5.56305,-5.26064 c 4.53513,-4.2886 6.34033,-7.05251 9.76976,-14.9583 4.60702,-10.62042 6.85529,-12.97456 13.34654,-13.97495 3.42235,-0.52744 4.51192,-0.2659 6.2869,1.50908 2.09292,2.09292 2.13254,2.64448 1.57049,21.86019 -0.49399,16.88861 -0.82568,19.96389 -2.31502,21.46344 -1.47567,1.48579 -4.11724,1.80324 -17.47732,2.10035 -8.65639,0.19251 -15.91188,0.52985 -16.1233,0.74966 -0.70511,0.73307 -1.08554,28.10651 -0.74214,53.39965 0.30386,22.3814 0.47303,24.51534 1.61504,20.37287 0.7016,-2.54492 1.58792,-5.13242 1.9696,-5.75 1.16019,-1.87723 5.36917,-1.25616 6.96933,1.02838 1.40802,2.01023 2.09117,2.1134 10.42098,1.57373 l 8.91418,-0.57752 1.11504,3.67627 c 2.94382,9.70577 3.12141,18.61127 0.4249,21.30778 -1.25679,1.25679 -20.47087,3.38854 -22.72959,2.52179 -0.77833,-0.29867 -2.30507,-2.48035 -3.39276,-4.84817 l -1.97762,-4.30513 -0.003,5 c -10e-4,2.75 0.79647,8.15 1.77318,12 l 1.77583,7 0.78121,-4.31779 c 1.16792,-6.45513 3.88104,-7.86642 12.33787,-6.41783 5.63608,0.96542 6.87203,0.9067 8.31022,-0.39485 2.08782,-1.88945 5.18198,-0.53441 7.08707,3.10367 1.04752,2.00043 1.20779,-2.01248 0.9191,-23.01306 -0.2198,-15.98989 0.0849,-28.50424 0.82061,-33.69806 0.64364,-4.54414 1.56116,-17.26208 2.03893,-28.26208 0.47776,-11 1.32372,-21.575 1.8799,-23.5 0.55618,-1.925 1.4904,-10.7 2.07604,-19.5 1.5413,-23.16005 3.45215,-37.5 4.997,-37.5 1.59009,0 1.71905,3.749 0.46579,13.54074 -0.70109,5.47759 -1.76838,17.55436 -2.37175,26.83727 -0.60338,9.28291 -1.39246,17.35599 -1.75351,17.94018 -0.36106,0.5842 -1.0056,10.31409 -1.43231,21.62199 -0.42672,11.3079 -1.23836,23.70982 -1.80364,27.55982 -2.45646,16.73041 -0.57144,74.23924 2.86807,87.5 9.21951,35.54512 9.20512,35.50193 16.67411,50.05398 4.9691,9.68145 5.29347,11.22109 2.26805,10.76557 -1.57415,-0.23701 -3.49787,-3.03178 -7.44738,-10.81955 -2.92874,-5.775 -6.13617,-13.08365 -7.12762,-16.24145 -1.6929,-5.39197 -3.37879,-7.06238 -4.80263,-4.75855 -0.33992,0.55 -1.60398,1.0522 -2.80902,1.116 -2.03027,0.10749 -2.04428,0.15206 -0.19098,0.60761 2.38743,0.58684 4.5,2.18246 4.5,3.39883 0,0.48266 -2.22071,0.87756 -4.9349,0.87756 -5.3044,0 -10.06145,1.39706 -11.27944,3.31256 -1.00778,1.58494 -0.96369,7.85853 0.0667,9.48273 0.45193,0.7124 3.03254,1.45414 5.73469,1.64829 2.70214,0.19416 6.21999,0.69001 7.81742,1.10189 2.86444,0.73855 2.89506,0.70208 2.22341,-2.6483 -1.62315,-8.09822 -1.84511,-10.89717 -0.86387,-10.89717 1.24491,0 4.39728,13.41694 3.62514,15.42911 -0.4401,1.14688 -2.41609,1.36836 -9.67604,1.08454 -8.3441,-0.3262 -9.2766,-0.56752 -10.92212,-2.82646 -2.65592,-3.64599 -3.35938,-10.68675 -1.4388,-14.40073 1.57548,-3.04665 1.57363,-3.05136 -1.43146,-3.65238 -3.15872,-0.63174 -5.92041,-5.18851 -5.92041,-9.76863 0,-1.20933 -0.27354,-1.92525 -0.60786,-1.59092 -1.16314,1.16313 2.69089,19.89015 6.6765,32.44164 2.20629,6.94803 3.78254,13.22927 3.50278,13.95831 -1.42026,3.70112 -3.45702,0.56839 -7.42768,-11.42448 z m 13.16246,-28.67389 c 7.26142,-1.51928 9.25746,-2.62595 10.22295,-5.66794 0.83935,-2.64457 -2.40219,-16.64547 -3.99536,-17.25683 -0.71432,-0.27411 -3.15952,0.1427 -5.43377,0.92625 -3.0433,1.0485 -5.23562,1.17733 -8.30371,0.48798 -3.97675,-0.89352 -7.82379,-0.0429 -7.77756,1.71961 0.036,1.37145 4.89447,19.26538 5.49446,20.2362 0.79415,1.28496 1.72587,1.24259 9.79299,-0.44527 z m -18.62309,-16.76361 c -0.31922,-0.79773 -0.55618,-0.56078 -0.60416,0.60417 -0.0434,1.05416 0.19293,1.64479 0.52522,1.3125 0.33229,-0.33229 0.36781,-1.1948 0.0789,-1.91667 z m 1.15624,-7.15214 c 1.32387,-1.49151 2.86556,-1.79041 8.14676,-1.57945 3.58264,0.14311 8.45544,-0.10371 10.82845,-0.54848 4.27526,-0.80133 4.30986,-0.84159 3.79853,-4.42056 -0.28381,-1.98653 -0.82042,-7.21187 -1.19246,-11.61187 -0.45157,-5.34064 -0.92972,-7.33516 -1.4384,-6 -0.70325,1.84589 -0.84751,1.78308 -1.8721,-0.8151 -0.61057,-1.5483 -1.11013,-3.3983 -1.11013,-4.11111 0,-0.84114 -2.01811,-1.50774 -5.75,-1.89928 -3.1625,-0.3318 -8.3375,-0.90725 -11.5,-1.27879 l -5.75,-0.67553 v 4.51724 c 0,2.48448 0.72383,7.72244 1.6085,11.6399 l 1.6085,7.12267 h 9.76906 c 7.58295,0 10.0555,-0.34515 11.04911,-1.54238 1.65319,-1.99196 3.06885,-0.57141 2.31258,2.32057 -0.77442,2.96142 -3.08024,3.42294 -15.19581,3.04154 -5.58596,-0.17585 -10.15532,-0.0166 -10.15412,0.35398 0.009,2.64411 2.53716,10.95273 2.83832,9.32629 0.20369,-1.1 1.10513,-2.82784 2.00321,-3.83964 z m 12.91065,-44.87497 c 1.51729,-1.25058 1.63595,-9.85557 0.20686,-15.00119 l -1.03198,-3.7158 -8.01124,0.61778 c -7.13429,0.55016 -8.32192,0.38809 -10.8494,-1.48057 -1.561,-1.15409 -3.11404,-1.82248 -3.45121,-1.48531 -0.33716,0.33717 -0.59496,2.90053 -0.57287,5.69637 0.0514,6.50794 3.94022,15.86669 6.8877,16.57586 3.32736,0.80057 15.44089,-0.0687 16.82214,-1.20714 z m -7.07032,-96.96973 c 9.00795,0.27932 10.2897,0.10667 11.13553,-1.5 1.10067,-2.09073 0.86966,-34.39849 -0.25901,-36.22473 -0.41276,-0.66786 -1.903,-1.65248 -3.31164,-2.18805 -3.7446,-1.42369 -7.51493,2.66439 -11.49833,12.46737 -2.5498,6.27496 -4.58707,9.36619 -9.49623,14.40903 -5.56224,5.71369 -6.25,6.86187 -6.25,10.434 v 4.01381 l 4.75,-0.86355 c 2.6125,-0.47495 9.33085,-0.72149 14.92968,-0.54788 z m -50.99218,202.53851 c -0.37813,-0.37813 -0.6875,-3.7625 -0.6875,-7.52084 0,-3.75833 -0.39249,-6.83333 -0.87219,-6.83333 -0.47971,0 -1.14256,-1.6875 -1.47301,-3.75 -0.90239,-5.63222 -7.94877,-19.45458 -15.39423,-30.19771 -3.64108,-5.25376 -8.90439,-13.82729 -11.69624,-19.05229 -4.08877,-7.65224 -5.56119,-9.56548 -7.57021,-9.83667 -1.37177,-0.18517 -3.54272,-1.53517 -4.82433,-3 -2.63335,-3.00983 -2.50549,-2.45982 1.71882,7.39351 4.53122,10.56918 7.88248,32.62903 9.33427,61.44316 0.25398,5.04087 0.0893,5.52668 -1.97289,5.81955 -1.86975,0.26555 -2.25672,-0.15695 -2.28975,-2.5 -0.11963,-8.48685 -2.81453,-35.96671 -4.41368,-45.00641 -1.66295,-9.4003 -3.55613,-15.13135 -8.61823,-26.08923 -2.10277,-4.55184 -5.01832,-12.19417 -6.47898,-16.98295 -3.06549,-10.05015 -7.93581,-20.24096 -9.67343,-20.24096 -5.21349,0 -28.08462,-3.40933 -31.27593,-4.66221 -12.66533,-4.97229 -24.91804,-8.61665 -31.5,-9.36912 -10.8664,-1.24229 -19.77155,-2.70945 -20.9805,-3.45663 -0.57836,-0.35744 -3.36512,-4.07843 -6.19278,-8.26885 -5.78385,-8.57129 -9.82671,-18.61939 -9.82671,-24.42323 0,-3.86907 3.49453,-12.04951 7.13713,-16.70749 1.02689,-1.31314 2.54115,-4.6574 3.36503,-7.43169 1.39523,-4.69824 1.35334,-5.58009 -0.61072,-12.85899 -1.39768,-5.17988 -3.24888,-9.24899 -5.49035,-12.06831 -1.85992,-2.33941 -3.38605,-5.00463 -3.39138,-5.92271 -0.0168,-2.89521 3.17888,-14.30354 4.18451,-14.93821 0.56376,-0.3558 0.1015,-2.21384 -1.11587,-4.48519 -2.64534,-4.93564 -2.60213,-5.94888 0.484,-11.34801 3.78652,-6.62444 9.42796,-23.73264 10.07698,-30.55936 l 0.57042,-6 -6.0957,-3.31265 c -5.27036,-2.86412 -6.69608,-3.22262 -10.52989,-2.6477 -6.22674,0.93376 -10.75997,-0.78064 -12.50832,-4.73044 -2.012004,-4.54542 -0.23569,-14.42201 3.46684,-19.27629 2.79497,-3.66438 25.93684,-25.519388 35.3063,-33.343008 6.87906,-5.7441 15.52987,-16.72837 18.54622,-23.54887 2.37528,-5.37093 2.40148,-5.69214 0.92458,-11.33431 -1.75964,-6.722354 -1.40096,-8.315909 6.37123,-28.306735 C 169.8869,7.876672 174.8078,0.05232299 177.74433,4.3799043e-4 180.24816,-0.04380201 179.94806,3.270629 177.1429,6.642792 c -3.10369,3.731033 -3.9178,5.35145 -9.88138,19.668031 -5.25383,12.612709 -5.45488,13.78742 -4.24286,24.790499 0.64352,5.84208 0.43768,7.27104 -1.72866,12 -3.34075,7.29265 -12.44243,17.95583 -22.74622,26.64861 -4.70219,3.96701 -14.25584,12.726788 -21.23032,19.466168 l -12.68089,12.25342 -0.5656,7.13702 -0.56559,7.13701 2.74648,0.5195 c 1.51056,0.28572 3.82476,0.85625 5.14266,1.26784 2.24124,0.69996 2.34975,0.56052 1.67805,-2.15651 -1.32284,-5.35092 -1.15441,-7.83381 0.55473,-8.17741 1.24262,-0.24981 1.79077,0.75162 2.31127,4.22254 0.37527,2.5025 1.21724,4.5514 1.87104,4.55309 0.6538,0.002 4.11373,1.4642 7.68873,3.25 l 6.5,3.24692 19.49999,0.33256 c 19.97762,0.34071 26.28607,1.23768 43.5,6.1851 7.16807,2.06016 15.68179,3.081 42,5.03603 18.33642,1.36211 27.82879,3.32106 34.46889,7.11337 10.89336,6.22146 17.03112,20.09004 17.03112,38.48267 0,7.60636 -2.1923,14.35027 -4.66498,14.35027 -3.0193,0 -9.03071,-3.24504 -10.69072,-5.771 -1.99202,-3.03118 -1.99889,-3.14577 0.31572,5.271 3.85211,14.00767 4.03998,15.41401 4.03998,30.24164 0,13.01777 -0.32015,16.25644 -2.12924,21.53991 -1.17108,3.42015 -2.47124,7.67011 -2.88925,9.44437 -0.68628,2.91289 -0.58345,3.13141 1.05969,2.25203 2.74855,-1.47098 5.47706,-5.85695 7.45147,-11.97795 2.66062,-8.24833 3.37035,-9.35857 5.07707,-7.94212 0.96451,0.80047 1.43026,3.24689 1.43026,7.51265 0,6.12746 -0.15748,6.51486 -5.02648,12.36557 -2.76457,3.32196 -6.45506,6.77867 -8.2011,7.68159 -1.74605,0.90291 -3.79127,2.25831 -4.54495,3.01198 -0.75368,0.75368 -1.88653,1.37033 -2.51745,1.37033 -0.63092,0 -3.51265,2.33613 -6.40383,5.19141 -2.89119,2.85527 -5.55381,4.89431 -5.91692,4.53121 -0.98711,-0.98711 2.33246,-5.66858 7.51289,-10.59518 3.82929,-3.64166 4.17995,-4.25419 2.09784,-3.66443 -5.18464,1.46855 -18.94104,1.83082 -20.49666,0.53977 -2.78324,-2.30988 -1.66961,-3.2548 3.00905,-2.55319 6.44742,0.96685 18.40911,-2.02457 19.42349,-4.85749 5.8272,-16.27398 6.06412,-17.6298 6.06412,-34.70361 0,-11.44334 -0.43303,-17.89526 -1.40679,-20.96035 -0.77373,-2.43548 -2.45708,-7.77078 -3.74076,-11.85623 -2.02665,-6.45001 -3.14807,-8.23421 -8.5167,-13.55027 -10.78016,-10.67459 -21.78038,-14.28785 -40.08778,-13.16771 -5.85195,0.35806 -13.36423,1.29655 -16.69395,2.08555 -3.32972,0.78899 -11.60799,2.43309 -18.39616,3.65355 -10.99319,1.97649 -12.79657,2.59645 -16.5,5.67233 -8.10714,6.73339 -8.19608,11.10628 -0.26648,13.10297 4.00566,1.00864 4.71611,1.6543 7.0169,6.37697 3.61098,7.41197 4.19214,11.18938 2.19132,14.24302 -3.22235,4.91792 -10.98951,2.35881 -15.23233,-5.01872 -0.62299,-1.08328 -1.49299,-1.6246 -1.93333,-1.20293 -0.44034,0.42166 -0.26812,1.29916 0.38272,1.95 0.65083,0.65083 1.19401,3.90583 1.20707,7.23333 0.0161,4.10566 0.81806,7.97827 2.49536,12.05 2.45387,5.95687 3.29753,13.87726 1.59055,14.93223 -0.48969,0.30265 -1.20552,-1.13329 -1.59073,-3.19098 -0.38521,-2.05769 -1.84952,-6.172 -3.25402,-9.14292 -1.65397,-3.49861 -2.72692,-7.82347 -3.04548,-12.27576 l -0.49184,-6.87409 -2.39204,1.56732 c -1.31562,0.86203 -2.79692,1.31708 -3.29179,1.01124 -1.1731,-0.72502 -1.73317,1.44554 -2.5672,9.94939 -0.83732,8.53732 -3.65025,16.01888 -7.54638,20.07118 -3.50797,3.64857 -3.85713,8.08029 -0.88772,11.26758 1.80462,1.93703 2.70704,2.11883 7.75,1.56132 6.89468,-0.76223 12.06217,-3.66103 13.40792,-7.52145 1.31206,-3.76377 3.79963,-3.75718 3.79963,0.0101 0,3.58366 -3.37617,7.97883 -7.4179,9.65677 -4.68487,1.94494 -15.94082,2.89166 -18.44515,1.55138 -2.87073,-1.53639 -5.13694,-6.20799 -5.13694,-10.58939 0,-3.93076 1.13055,-6.61447 3.99177,-9.4757 3.11628,-3.11628 5.9189,-10.79308 6.95398,-19.04804 1.15702,-9.22743 2.47442,-11.85 5.83858,-11.62297 2.16464,0.14608 2.45225,-0.29901 2.80266,-4.33721 0.21477,-2.475 -0.24935,-6.525 -1.03136,-9 l -1.42185,-4.5 -0.0669,5.125 c -0.0908,6.95792 -1.10083,11.52905 -2.44971,11.08705 -0.61446,-0.20134 -1.25914,-1.90642 -1.43264,-3.78906 -0.18459,-2.00306 -1.30501,-4.35426 -2.70097,-5.668 l -2.38552,-2.245 0.5893,8.35049 c 0.43292,6.13451 0.25756,8.55553 -0.66083,9.12312 -1.89898,1.17363 -2.69531,-0.94673 -3.31232,-8.8196 -0.3088,-3.9402 -1.27083,-8.83705 -2.13783,-10.88188 -1.97751,-4.66401 -2.00137,-6.78212 -0.0764,-6.78212 0.825,0 1.5,-0.47039 1.5,-1.04531 0,-0.95966 -4.34598,-0.63926 -9.17577,0.67646 -0.92168,0.25108 -2.10347,-0.30773 -2.62621,-1.24181 -1.41911,-2.5358 -4.19801,-0.98955 -4.19801,2.33588 0,1.53339 -0.43699,4.31168 -0.97109,6.17398 -0.86426,3.01351 -0.64087,3.80293 2.03069,7.17605 5.66183,7.14864 9.16443,21.52734 6.95808,28.56392 -0.66582,2.12346 -3.41718,7.74382 -6.11413,12.48969 -2.69695,4.74588 -4.90355,9.51293 -4.90355,10.59345 0,3.91461 4.03974,13.56851 8.46046,20.21822 6.71806,10.1054 4.56339,9.15022 27.03953,11.98681 7.3225,0.92413 25.14779,6.20824 30.36902,9.00256 1.19094,0.63737 9.24511,2.008 17.89816,3.04584 8.65305,1.03784 16.47466,2.1735 17.38136,2.52368 0.9067,0.35018 1.86539,2.06856 2.13044,3.81863 0.26505,1.75007 1.80784,6.33195 3.42844,10.18195 1.6206,3.85 3.54074,9.25 4.26699,12 0.72624,2.75 1.62026,5.34366 1.9867,5.76368 0.36644,0.42003 0.6411,-7.67448 0.61036,-17.9878 -0.0473,-15.86226 0.17403,-18.79483 1.43632,-19.0328 1.95721,-0.36896 6.37694,7.69617 7.97943,14.5609 1.6686,7.14787 0.6117,7.64618 -2.28102,1.07545 l -2.36827,-5.37943 -0.70803,12.58216 c -0.73756,13.10711 -0.35066,15.42484 3.32493,19.91784 l 2.04517,2.5 1.87915,-2.41551 1.87914,-2.41551 3.4853,3.41551 c 1.91691,1.87853 4.17862,4.76551 5.02602,6.41551 0.8474,1.65 3.78696,5.56061 6.53235,8.69023 5.56784,6.34712 13.52592,19.05224 18.44816,29.45261 3.20829,6.7789 3.24536,7.02734 3.24761,21.76792 0.002,13.99592 -0.59301,17.16062 -2.81022,14.94341 z m -4.5227,-36.48687 c -4.21096,-9.38544 -13.71625,-24.34338 -16.72019,-26.31164 -2.57813,-1.68924 -2.58489,-1.68627 -1.36171,0.59924 0.6761,1.2633 4.03648,6.35775 7.46751,11.321 3.43103,4.96326 7.74187,12.08086 9.57965,15.8169 4.15879,8.45445 4.96763,7.34017 1.03474,-1.4255 z m -19.81973,-30.41043 c -0.32569,-0.84872 -0.80663,-1.32866 -1.06875,-1.06653 -0.26213,0.26213 -0.17998,0.95654 0.18255,1.54313 0.98605,1.59546 1.56238,1.28551 0.8862,-0.4766 z m 30.21328,-100.95687 c 0.46658,-2 0.36653,-2.66667 -0.30013,-2 -0.55,0.55 -1.31495,2.35 -1.69987,4 -0.46659,2 -0.36654,2.66667 0.30012,2 0.55,-0.55 1.31495,-2.35 1.69988,-4 z M 172.49433,223.37066 c 0,-1.36445 -0.89647,-4.23804 -1.99215,-6.38575 -1.95331,-3.8288 -2.04591,-3.87688 -4.75,-2.46632 -1.51682,0.79123 -3.99535,1.44138 -5.50785,1.44477 -1.5125,0.003 -2.75,0.45616 -2.75,1.00616 0,0.55 0.99428,1 2.20951,1 1.3471,0 3.85808,1.79562 6.43311,4.60036 4.39273,4.78459 6.35738,5.03206 6.35738,0.80078 z m -11.55,-11.46453 c 1.96663,-0.0608 1.96063,-0.0994 -0.14755,-0.94837 -2.45896,-0.99026 -4.80858,-7.81821 -3.79228,-11.02029 0.33756,-1.06354 2.38586,-3.77814 4.55179,-6.03243 2.16592,-2.2543 3.93115,-4.3995 3.92273,-4.76712 -0.0375,-1.63574 -1.72032,-2.89969 -4.60772,-3.46076 -3.77876,-0.73427 -6.112,1.43196 -9.20097,8.54236 -1.66831,3.84024 -1.78821,4.75 -0.62597,4.75 0.92616,0 2.22249,2.66797 3.64402,7.49974 1.4706,4.99854 2.53989,7.16632 3.20621,6.5 0.54986,-0.54986 1.92224,-1.02826 3.04974,-1.06313 z M 147.879,201.21952 c 0.45594,-1.36764 0.34404,-2.25 -0.28535,-2.25 -0.56949,0 -1.66628,-1.20399 -2.4373,-2.67554 l -1.40186,-2.67553 -2.63008,2.63008 c -3.55985,3.55985 -3.3127,5.95883 1.11992,10.87054 l 3.75,4.1553 0.56728,-3.90242 c 0.312,-2.14634 0.90483,-4.91493 1.31739,-6.15243 z m 135.68191,3.61079 c 1.05831,-3.98329 -0.92458,-20.76408 -2.99372,-25.3352 -6.58193,-14.54074 -15.30372,-18.90674 -41.07286,-20.56046 -22.84147,-1.46585 -37.42292,-3.14463 -44.5,-5.12337 -23.41964,-6.54806 -25.46716,-6.89348 -42.75949,-7.21359 -13.02147,-0.24104 -17.00559,-0.0137 -17.86293,1.01935 -0.6069,0.73127 -1.24692,3.69723 -1.42227,6.59103 -0.37499,6.18863 -4.35632,19.48261 -8.69474,29.03247 -3.57193,7.86265 -3.04473,10.26931 2.86716,13.0885 4.5323,2.1613 5.8925,2.07184 8.33331,-0.54808 1.61857,-1.73733 2.04178,-3.5414 2.05261,-8.75 0.0174,-8.36197 0.78016,-11.24838 2.86564,-10.84415 1.32204,0.25625 1.56312,1.41696 1.30819,6.29843 -0.17188,3.29135 -0.53971,6.77178 -0.81739,7.73428 -0.36047,1.2495 0.0642,1.75 1.48497,1.75 1.4113,0 2.35193,-1.0903 3.23522,-3.75 l 1.24538,-3.75 1.28707,3 c 0.70788,1.65 1.30736,2.44226 1.33217,1.76059 0.0248,-0.68168 2.2951,-3.72394 5.0451,-6.76059 2.75,-3.03665 5,-6.16485 5,-6.95157 0,-2.8543 -1.87504,-2.48669 -3.8823,0.76113 -2.4006,3.88425 -5.00993,6.39973 -7.1177,6.86169 -1.27054,0.27846 -1.51072,-1.65993 -1.57009,-12.67125 -0.0386,-7.15 -0.42126,-14.42251 -0.85046,-16.16113 -0.67853,-2.74862 -0.43511,-3.38734 1.86542,-4.8947 2.19512,-1.4383 3.27681,-1.55002 6.35045,-0.65587 2.03758,0.59274 8.20468,1.5825 13.70468,2.19947 10.8295,1.2148 13.5,2.73575 13.5,7.68876 0,3.88294 -1.69406,6.29861 -10.22009,14.57347 -4.39188,4.2625 -7.53425,7.75 -6.98306,7.75 0.55119,0 3.29574,-1.54346 6.09899,-3.4299 9.87232,-6.64359 16.61088,-8.51987 41.60416,-11.58423 8.54942,-1.04822 17.28511,0.0728 28,3.59317 11.07834,3.63978 12.18396,4.32354 20.05145,12.40076 6.88802,7.07166 8.82697,9.67311 15.29515,20.52124 3.75546,6.29847 6.93128,7.21017 8.21998,2.35975 z m -11.11355,-15.48435 c -0.54861,-1.44297 -2.06866,-3.46616 -3.37787,-4.49599 -1.30922,-1.02983 -3.55543,-3.87745 -4.99157,-6.32805 -1.43615,-2.4506 -3.94085,-5.24109 -5.56602,-6.2011 -3.45968,-2.04368 -4.5726,-4.20108 -2.56465,-4.9716 1.88647,-0.72391 8.27143,5.17419 10.65912,9.84636 1.04731,2.04933 3.21291,4.69364 4.81246,5.87623 1.59955,1.1826 3.12877,2.99338 3.39827,4.02395 0.2695,1.03057 0.98213,1.87376 1.58362,1.87376 4.21002,0 -4.53752,-17.71889 -10.19809,-20.65709 -4.03423,-2.09402 -2.05471,-2.93232 2.46497,-1.04388 2.23538,0.934 4.78632,3.52866 7.62401,7.75466 3.9436,5.87297 4.21418,6.6933 3.59486,10.89865 -0.36834,2.50122 -1.16976,4.87827 -1.78093,5.28235 -2.26915,1.50028 -4.68262,0.70765 -5.65818,-1.85825 z m -6.60794,6.08043 c -0.32569,-0.84872 -0.80663,-1.32866 -1.06875,-1.06653 -0.26213,0.26213 -0.17998,0.95654 0.18255,1.54313 0.98605,1.59546 1.56238,1.28551 0.8862,-0.4766 z m -5.39934,-6.20687 c -9.92037,-11.3534 -11.80797,-12.647 -23.54357,-16.13467 -14.03866,-4.17211 -16.63073,-4.33628 -32.35619,-2.0493 -15.93896,2.31802 -21.01976,3.91438 -30.58874,9.61078 -4.88561,2.9084 -6.42649,4.36998 -6.43978,6.10837 -0.0142,1.86172 0.30683,2.11488 1.73253,1.36613 0.9625,-0.50548 3.775,-1.24241 6.25,-1.63763 2.475,-0.39522 11.205,-2.02435 19.39999,-3.62029 19.43088,-3.78408 34.76569,-4.66446 43.85003,-2.51747 7.64584,1.80703 17.3174,6.37276 20.15498,9.51474 1.04774,1.16014 2.36368,2.10934 2.92431,2.10934 0.56063,0 -0.062,-1.2375 -1.38356,-2.75 z M 159.14927,168.12997 c 1.07155,0.19962 2.24618,1.70534 2.80186,3.59163 1.06588,3.61824 2.09662,4.12807 3.02838,1.49792 0.34097,-0.9625 2.86618,-3.45995 5.61156,-5.5499 5.20465,-3.96208 7.56115,-7.54327 6.60435,-10.03667 -0.57256,-1.49205 -2.8157,-2.03306 -15.20109,-3.66625 -12.67055,-1.67079 -12.03391,-1.69824 -11.66271,0.50282 0.1855,1.1 0.30608,6.21024 0.26794,11.3561 l -0.0693,9.3561 3.38699,-3.69773 c 2.08855,-2.28016 4.09432,-3.56597 5.23206,-3.35402 z M 316.0462,429.05344 c -0.31139,-0.50385 -0.11295,-2.10814 0.44099,-3.5651 1.50956,-3.97045 1.21363,-13.09358 -0.56119,-17.30094 -1.50884,-3.57681 -6.16002,-20.21545 -9.146,-32.71788 -0.78814,-3.3 -2.3067,-8.7 -3.37458,-12 -7.63325,-23.58864 -10.18463,-31.09281 -10.79002,-31.73586 -0.38103,-0.40472 -1.18977,1.17028 -1.79719,3.5 -5.47402,20.99501 -4.54575,26.12856 10.16878,56.23586 10.55501,21.59652 15.04327,32.66102 14.17094,34.93429 -0.96128,2.50506 -3.38608,1.80982 -4.13049,-1.18429 -1.25558,-5.05007 -5.72118,-15.63709 -11.49405,-27.25 -10.30147,-20.72282 -13.08538,-27.69109 -14.65458,-36.68122 -1.38368,-7.92728 -1.37389,-9.41329 0.1072,-16.2714 0.89647,-4.15106 2.39548,-10.02238 3.33113,-13.04738 1.45094,-4.69095 2.05863,-5.5 4.13108,-5.5 2.24727,0 2.81681,1.16495 7.57778,15.5 2.83134,8.525 5.64235,16.6941 6.2467,18.15356 0.60434,1.45946 1.75797,5.73446 2.56362,9.5 2.08513,9.74571 8.44506,31.99985 10.72608,37.53182 2.32518,5.63906 2.5115,14.1833 0.41852,19.1925 -1.49366,3.57484 -2.82984,4.49377 -3.93472,2.70604 z m 70.67725,-7.83392 c -15.39543,-24.54484 -19.54304,-35.66863 -22.27832,-59.75 -1.06202,-9.35 -2.65957,-19.7 -3.55011,-23 -2.15888,-7.9999 -3.15119,-57.7546 -1.47374,-73.89314 3.29969,-31.74601 7.79092,-53.28419 13.26356,-63.60686 5.20069,-9.80972 11.50033,-19.23923 15.70116,-23.50199 2.25959,-2.29291 4.10834,-4.74305 4.10834,-5.44476 0,-1.71148 7.08085,-0.46997 8.61024,1.50966 0.61064,0.7904 2.02574,1.43709 3.14467,1.43709 3.36326,0 15.31595,-4.01678 22.24509,-7.47562 3.575,-1.78454 8.975,-4.04641 12,-5.02637 6.41195,-2.07719 26.16079,-11.85058 33.74401,-16.69938 6.92012,-4.4248 24.25599,-19.76511 24.25599,-21.46383 0,-0.73414 0.675,-1.3348 1.5,-1.3348 0.98436,0 1.5,0.98506 1.5,2.86557 0,2.34452 -1.66101,4.36157 -9.13493,11.09305 -5.02422,4.52511 -12.29164,10.25087 -16.14983,12.72391 -7.49578,4.80467 -24.98803,13.37546 -33.21972,16.27688 -2.75247,0.97016 -7.70247,3.1233 -11,4.78476 -7.56866,3.81346 -21.54929,8.25583 -25.98204,8.25583 -1.86081,0 -4.50621,-0.42694 -5.87868,-0.94875 -3.25962,-1.2393 -6.05097,0.92481 -11.15462,8.6481 -2.10823,3.19036 -5.04341,7.60065 -6.52263,9.80065 -7.27417,10.81868 -11.40766,25.44905 -15.6803,55.5 -2.5979,18.27194 -2.55726,75.51469 0.0603,84.87661 0.98057,3.50713 2.61559,13.85713 3.63338,23 2.22791,20.01336 5.51645,30.23317 15.48111,48.11082 6.39981,11.48192 8.85697,18.01257 6.77724,18.01257 -0.56142,0 -2.36148,-2.1375 -4.00014,-4.75 z m 25.27089,-3.78611 c -1.65,-0.75553 -6.0375,-1.39398 -9.75,-1.41879 -5.16089,-0.0345 -7.18001,-0.47511 -8.57655,-1.87165 -3.31715,-3.31715 -5.63564,-21.06641 -2.67431,-20.47336 0.54952,0.11005 1.48323,2.58505 2.07491,5.5 0.59168,2.91495 1.63946,6.98741 2.32842,9.04991 l 1.25263,3.75 h 5.80762 c 3.19418,0 8.1305,0.75021 10.9696,1.66714 6.33029,2.04445 7.97937,0.95399 8.22999,-5.44213 0.27632,-7.05169 -4.17395,-10.42973 -15.87673,-12.05148 -7.55646,-1.04717 -12.37476,-2.86571 -13.04507,-4.92353 -0.55033,-1.68946 2.73722,-1.59704 11.25949,0.31654 14.72682,3.30675 15.50141,3.61182 18.54462,7.30376 2.50033,3.03333 2.95538,4.45338 2.95538,9.22269 0,9.69408 -5.08524,13.22395 -13.5,9.3709 z m 78.25097,-15.34499 c -7.1124,-7.53952 -11.27319,-13.22015 -14.73613,-20.1189 -1.24236,-2.475 -7.35462,-12.20476 -13.58279,-21.62168 -10.04478,-15.18761 -11.56532,-18.06707 -13.46076,-25.49077 -2.59434,-10.16103 -3.60422,-23.14222 -4.50339,-57.88755 -0.55764,-21.54824 -0.38106,-29.0226 0.94501,-40 0.89694,-7.425 2.033,-14.625 2.52459,-16 0.49159,-1.375 1.12359,-3.85289 1.40444,-5.50643 1.10538,-6.50807 6.41647,-13.79772 25.42941,-34.90274 5.90076,-6.55004 15.01389,-16.89585 20.25141,-22.99068 9.40385,-10.94316 13.98549,-14.41901 12.44591,-9.44207 -0.83434,2.69712 -14.81859,19.49787 -29.13006,34.997 -5.41124,5.8603 -12.31361,13.67319 -15.33861,17.36199 -3.025,3.68879 -6.57184,7.77561 -7.88188,9.08181 -4.85134,4.83713 -6.68242,22.44215 -6.38628,61.40112 0.25955,34.14477 1.24565,48.69569 4.10806,60.6186 2.35182,9.79612 2.10388,9.31636 14.15107,27.3814 5.31836,7.975 11.35699,17.72475 13.41918,21.66612 2.21164,4.22701 7.2029,10.96216 12.16964,16.42159 4.63112,5.0905 8.42021,9.85325 8.42021,10.58387 0,3.13044 -4.20894,0.85013 -10.24903,-5.55268 z m -70.17513,-16.29646 c -1.05829,-0.61421 -4.65829,-1.45664 -8,-1.87205 -3.34171,-0.41542 -9.67584,-1.46291 -14.07584,-2.32777 -4.4,-0.86485 -9.72166,-1.83554 -11.82591,-2.15709 -3.16999,-0.48441 -4.07006,-1.16897 -5.25,-3.99297 -0.78325,-1.87458 -1.42409,-4.68278 -1.42409,-6.24044 0,-1.55767 -0.495,-3.32712 -1.1,-3.93212 -0.8,-0.8 -0.50112,-1.69888 1.09589,-3.29589 1.72412,-1.72412 2.98095,-2.08501 5.85,-1.67978 2.00976,0.28387 6.83733,0.94121 10.72794,1.46076 3.89061,0.51955 9.96561,2.17767 13.5,3.6847 3.53439,1.50703 8.22617,3.4533 10.42617,4.32503 4.9963,1.97974 6.5,3.08635 6.5,4.78349 0,0.94407 -1.67898,0.52308 -5.75,-1.44175 -8.40839,-4.05821 -18.17919,-7.1336 -22.75,-7.16062 -2.2,-0.013 -5.8,-0.44903 -8,-0.96893 -5.89072,-1.39208 -7.55497,-0.58965 -6.84197,3.29889 1.1006,6.00245 2.75276,7.48743 9.06573,8.14842 3.17693,0.33264 8.35695,1.26649 11.51114,2.07524 3.1542,0.80874 7.10615,1.47044 8.78212,1.47044 1.67597,0 4.65492,0.67174 6.61988,1.49275 1.96496,0.82102 4.65051,1.22223 5.96788,0.8916 2.64239,-0.6632 3.32457,1.2863 1.19522,3.41565 -1.48144,1.48144 -3.69653,1.48942 -6.22416,0.0224 z m -19.57584,-27.23588 c -1.925,-0.7291 -5.17305,-2.05935 -7.21788,-2.9561 -2.04484,-0.89675 -5.69019,-1.63046 -8.10078,-1.63046 -6.39485,0 -10.57601,-1.73217 -11.31809,-4.68885 -0.67994,-2.70909 0.0986,-12.63135 1.12086,-14.28544 1.02436,-1.65745 5.70994,-1.19443 14.91913,1.47429 4.74484,1.375 10.30768,2.50168 12.36187,2.50374 5.29335,0.005 9.76813,3.04661 11.28342,7.66887 0.6901,2.10506 1.89881,4.81786 2.68602,6.02843 2.36768,3.64097 0.84544,5.94762 -4.39947,6.66651 -6.16075,0.84443 -7.23997,0.77007 -11.33508,-0.78099 z m 13.29368,-3.21358 c 1.07664,-1.07664 -2.06459,-7.26926 -4.99531,-9.84774 -2.01196,-1.77014 -3.98848,-2.47092 -7.03326,-2.49364 -2.32919,-0.0174 -8.11703,-1.1566 -12.86187,-2.5316 -4.74483,-1.375 -9.25163,-2.5 -10.01511,-2.5 -1.01533,0 -1.38813,1.47197 -1.38813,5.48095 0,6.16339 -0.26714,5.97983 10,6.87113 3.025,0.2626 7.975,1.63641 11,3.05292 5.16782,2.41991 13.73884,3.52283 15.29368,1.96798 z M 262.01539,335.60857 c -1.68772,-1.23409 -1.40258,-1.42716 3.05887,-2.07125 5.92773,-0.85577 11.80069,-4.46934 13.91787,-8.56353 1.77233,-3.4273 3.50221,-3.94054 3.50221,-1.03907 0,2.84443 -5.83126,9.05275 -10.49142,11.16982 -4.81741,2.1885 -7.49882,2.32382 -9.98753,0.50403 z m 134.47895,-5.0678 c -4.4299,-1.01577 -17.46593,-4.28646 -24.87253,-6.24043 -1.02385,-0.2701 -1.25786,-1.74489 -0.92116,-5.80514 0.32643,-3.93634 0.0835,-5.58421 -0.87746,-5.95298 -0.73087,-0.28046 -1.32885,-1.19905 -1.32885,-2.04132 0,-1.60207 1.715,-1.86608 10,-1.53944 4.31828,0.17026 12,3.49401 12,5.1922 0,1.1092 -0.36879,1.05223 -4.8845,-0.7546 -2.15874,-0.86376 -5.43034,-1.42626 -7.27024,-1.25 -3.25061,0.31139 -3.34526,0.44778 -3.34526,4.82046 0,4.26351 0.15766,4.51651 3,4.81419 1.65,0.1728 6.6,1.45183 11,2.84229 4.7801,1.51057 10.71534,2.59157 14.7464,2.68581 5.52548,0.12917 6.74705,0.45505 6.75,1.80072 0.007,3.09811 -4.64408,3.5727 -13.9964,1.42824 z m 8.25,-11.23338 c -3.82791,-4.30061 -3.83852,-4.33787 -1.2353,-4.33787 1.19985,0 2.81614,1.31447 3.99626,3.25 3.60948,5.91998 2.07736,6.52367 -2.76096,1.08787 z m -118.67225,-1.56012 c -3.8558,-3.8558 -5.56416,-8.94856 -5.57217,-16.61108 -0.008,-7.29466 2.25655,-6.39003 3.22372,1.288 0.40111,3.18431 1.62017,7.19719 2.70903,8.9175 4.29897,6.79208 5.05751,8.51237 4.03267,9.14575 -0.56191,0.34728 -2.53888,-0.8858 -4.39325,-2.74017 z m -42.34334,-3.02775 c -0.55576,-0.6875 -1.317,-3.725 -1.69164,-6.75 -0.9218,-7.44291 -2.25307,-11.42785 -4.49586,-13.45754 -1.74705,-1.58105 -2.05245,-1.58494 -4.38616,-0.0558 -2.30238,1.50858 -2.76098,1.51291 -5.58456,0.0528 -1.74489,-0.90237 -3.0762,-2.38755 -3.0762,-3.43179 0,-3.11251 4.18517,-12.10767 5.63333,-12.10767 1.78899,0 1.73625,3.1797 -0.12669,7.63835 -2.35754,5.6424 -0.5646,6.99824 3.84734,2.9094 3.08003,-2.85448 3.63625,-7.95379 0.9788,-8.97354 -2.51359,-0.96456 -0.0291,-2.92999 2.63493,-2.08446 1.90986,0.60617 2.13982,1.31924 1.92449,5.96765 -0.19073,4.11762 0.22312,5.87375 1.88091,7.98129 1.169,1.48614 2.37328,4.6954 2.67617,7.13169 0.3029,2.43629 0.80329,6.45462 1.11199,8.92962 0.83777,6.71677 3.1413,5.40443 4.89884,-2.7909 0.71007,-3.31104 2.53989,-2.66296 2.53989,0.89958 0,6.25477 -5.87765,11.71383 -8.76558,8.14132 z m 158.26559,-7.15926 c -5.93601,-2.69834 -16.96167,-5.84188 -23.20599,-6.61629 -9.01311,-1.11778 -9.55984,-1.78403 -9.1353,-11.13252 0.19364,-4.26399 0.84356,-8.2442 1.44427,-8.84491 0.7896,-0.7896 2.31191,-0.66746 5.49461,0.44084 2.42132,0.84317 6.15214,1.53958 8.29069,1.54759 3.17953,0.0119 5.24027,1.05009 11.30532,5.69554 4.07937,3.12455 8.74215,7.19021 10.36172,9.0348 3.48561,3.96989 3.94958,8.67604 1.01042,10.24903 -2.34412,1.25453 -1.92035,1.28301 -5.56574,-0.37408 z m 4.48403,-3.34074 c -0.0337,-1.58125 -5.91549,-7.32726 -12.97562,-12.67603 -6.11852,-4.6354 -8.04364,-5.57627 -11.4329,-5.58762 -2.24153,-0.008 -5.08801,-0.285 -6.32551,-0.61664 -2.13717,-0.57274 -2.25,-0.32228 -2.25,4.99461 0,6.23254 -0.46483,5.88142 9.5,7.17612 5.43594,0.70628 19.41784,5.07587 20.95,6.54725 1.1497,1.10408 2.556,1.19416 2.53403,0.16231 z M 325.80098,300.54 c -10.28669,-1.2957 -12.67558,-2.7045 -14.3851,-8.48328 -0.58365,-1.97296 -0.91726,-6.23945 -0.74136,-9.48109 l 0.31982,-5.89388 4.5,-1.34093 c 6.25998,-1.86539 13.84285,-1.70445 17.91699,0.38025 3.66207,1.87385 4.87954,4.88673 7.1341,17.65475 1.67178,9.46763 2.05696,9.28047 -14.74445,7.16418 z m 11.43368,-6.82048 c -0.25359,-2.3375 -1.07011,-6.56923 -1.81451,-9.40385 -1.25447,-4.777 -1.61201,-5.19665 -4.88962,-5.739 -5.35798,-0.88659 -8.67462,-0.72983 -12.97869,0.61347 l -3.91101,1.22062 0.56229,5.02938 c 0.30925,2.76616 1.24503,6.21899 2.0795,7.67296 1.56629,2.72911 1.42336,2.69555 20.06241,4.71041 1.00832,0.109 1.23383,-0.93129 0.88963,-4.10399 z m -162.0413,-6.33658 c -7.74629,-1.54123 -11.84546,-3.28296 -12.50907,-5.31506 -0.34739,-1.06379 0.1169,-1.22294 1.92616,-0.66027 1.31113,0.40776 6.19494,1.60313 10.85291,2.65639 4.65797,1.05326 9.1419,2.58788 9.96429,3.41027 1.327,1.327 1.21796,1.48212 -0.96903,1.37854 -1.35536,-0.0642 -5.52473,-0.72563 -9.26526,-1.46987 z m 221.32506,-9.23997 c -2.38316,-2.27748 -4.39295,-3.10668 -8.806,-3.63319 -3.14494,-0.37521 -7.51808,-1.50862 -9.71808,-2.51867 -2.2,-1.01005 -4.96776,-2.11924 -6.15059,-2.46486 -2.88134,-0.84193 -3.54349,-4.11726 -2.26124,-11.18512 1.56571,-8.63025 3.11681,-10.60087 7.7088,-9.79372 5.59052,0.98265 11.22946,3.76332 15.9251,7.85296 5.10326,4.44465 11.60356,16.83519 11.10834,21.17415 -0.46862,4.106 -3.84718,4.35202 -7.80633,0.56845 z m 2.98887,-4.63939 c -2.33384,-6.13847 -5.26858,-10.60037 -9.22846,-14.03071 -9.05096,-7.84062 -14.87271,-8.44789 -16.73406,-1.74556 -0.5716,2.05822 -1.04179,4.46582 -1.04485,5.35024 -0.008,2.42759 9.59237,6.9584 16.99442,8.02001 4.1718,0.59832 7.20642,1.63781 8.47222,2.90209 2.53093,2.52791 2.67305,2.48215 1.54073,-0.49607 z m -197.26296,0.74254 c 1.7875,-0.22182 4.7125,-0.22182 6.5,0 1.7875,0.22183 0.325,0.40333 -3.25,0.40333 -3.575,0 -5.0375,-0.1815 -3.25,-0.40333 z m 130.8344,-1.0266 c -0.41192,-0.4125 -4.76718,-0.99633 -9.67836,-1.2974 -6.42662,-0.39397 -9.39418,-1.01217 -10.58762,-2.20562 -1.25493,-1.25493 -1.87574,-4.73624 -2.55257,-14.31397 -0.49189,-6.96065 -0.64631,-13.30212 -0.34315,-14.09214 0.65465,-1.70598 6.7401,-0.95425 10.29213,1.27137 3.90198,2.44491 14.28518,1.49113 14.28518,-1.3122 0,-3.23791 2.62931,-0.30575 4.7305,5.27537 1.84424,4.8986 2.12686,7.13682 1.632,12.92459 -0.72801,8.51469 -2.91756,14.5 -5.30441,14.5 -0.94862,0 -2.06178,-0.3375 -2.4737,-0.75 z m 4.53707,-13.80221 c 0.14567,-3.27128 -0.29981,-7.6136 -0.98995,-9.6496 -1.15266,-3.40047 -1.4586,-3.62433 -3.75826,-2.75 -3.6517,1.38837 -11.61797,1.1633 -13.90074,-0.39274 -1.08488,-0.7395 -3.01895,-1.60624 -4.29792,-1.9261 -2.18236,-0.54578 -2.29192,-0.3554 -1.78099,3.09455 0.29943,2.02185 0.83802,6.8261 1.19687,10.6761 0.35884,3.85 1.10289,7.5625 1.65343,8.25 0.62129,0.77585 3.70462,1.27666 8.12854,1.32029 3.92016,0.0387 8.02756,0.42991 9.12756,0.86945 2.77286,1.108 4.28802,-2.00397 4.62146,-9.49195 z m -193.4548,5.88554 c -1.14825,-1.14825 -0.73222,-4.30717 1.00526,-7.63299 0.91957,-1.76019 2.65672,-6.10439 3.86034,-9.65379 1.20362,-3.54939 2.76413,-6.64535 3.46778,-6.8799 2.35463,-0.78488 0.5277,9.45722 -2.85786,16.02169 -1.7282,3.35092 -3.14219,6.70438 -3.14219,7.45212 0,1.44173 -1.2217,1.80451 -2.33333,0.69287 z m 107.94507,-21.58333 c -1.85224,-20.61909 -1.83407,-20.55429 -7.69723,-27.465 -4.30719,-5.07675 -16.51568,-7.7144 -23.85856,-5.15466 -4.17413,1.45511 -10.65733,-0.29903 -11.55467,-3.1263 -0.34072,-1.07353 -1.7866,-2.86991 -3.21305,-3.99196 -1.42646,-1.12205 -2.27827,-2.35537 -1.89293,-2.74071 1.19516,-1.19516 4.0207,1.19775 5.92139,5.01474 2.06792,4.15282 6.25091,5.58919 11.00882,3.78023 3.98133,-1.5137 9.98883,-1.32154 16.3318,0.52241 4.10702,1.19395 6.50605,2.71277 9.65391,6.11186 2.30383,2.4877 4.61712,5.26026 5.14064,6.16124 1.30533,2.24646 2.56201,10.03114 3.21056,19.88815 0.45008,6.84065 0.2915,8.25 -0.9283,8.25 -1.09965,0 -1.63555,-1.83064 -2.12238,-7.25 z m 145.38827,3.07911 c -3.025,-1.6718 -7.44279,-4.62222 -9.81732,-6.55648 -2.37452,-1.93427 -6.37603,-4.25341 -8.89225,-5.15364 -3.98588,-1.42604 -4.72291,-2.15067 -5.7242,-5.62789 -1.43657,-4.98882 -1.04475,-6.94754 1.757,-8.78332 4.05451,-2.65661 8.49708,-3.06224 11.45797,-1.04616 1.48495,1.01111 5.61519,3.41338 9.1783,5.33838 7.18547,3.88201 9.15436,6.50031 11.4152,15.18027 2.70169,10.37245 0.3635,12.03077 -9.3747,6.64884 z m 4.87759,-7.72556 c -2.35519,-6.9741 -2.90823,-7.50688 -13.67252,-13.1715 -9.27574,-4.88128 -11.45887,-4.70966 -12.02038,0.94495 -0.29577,2.97854 0.0234,3.32508 5.15095,5.59273 3.00645,1.32959 7.02371,3.7849 8.92725,5.45623 2.94267,2.5837 10.66808,6.77083 12.92154,7.0034 0.37643,0.0389 -0.21164,-2.58276 -1.30684,-5.82581 z m -155.25923,6.18149 c -0.39322,-0.39323 -1.6152,-2.75012 -2.71551,-5.23754 -2.57357,-5.81799 -5.07576,-8.41983 -11.88068,-12.35387 -4.46227,-2.57972 -5.10331,-3.25221 -3.33986,-3.50373 4.28367,-0.61098 13.80623,6.08613 16.79268,11.8101 2.95529,5.66428 3.71824,11.8599 1.14337,9.28504 z M 198.49433,222.9167 c 0,-1.21661 2.48617,-2.28512 4.08043,-1.7537 0.63053,0.21017 -0.0296,0.91797 -1.46701,1.57289 -1.64009,0.74727 -2.61342,0.81461 -2.61342,0.18081 z m 8.62892,-2.87892 c 1.58619,-1.72273 8.76442,-2.51506 11.00291,-1.21449 1.52032,0.88331 0.90584,1.09107 -3.30004,1.11582 -2.84252,0.0167 -5.99252,0.32164 -7,0.67759 -1.40941,0.49795 -1.57148,0.36446 -0.70287,-0.57892 z M 194.61468,212.152 c 0.39099,-3.12536 0.74886,-6.46998 0.79527,-7.43248 0.0464,-0.9625 0.53438,-1.75 1.08438,-1.75 1.29592,0 1.27308,5.47659 -0.0426,10.21387 -1.61145,5.80221 -2.62102,5.23539 -1.83705,-1.03139 z m 197.53964,-1.48641 c -4.71185,-1.46763 -3.79752,-2.69607 2.00669,-2.69607 4.75032,0 5.09451,-0.46825 2.77663,-3.77749 -2.33697,-3.33649 -9.0586,-3.16095 -10.62525,0.27749 -1.37763,3.02356 -3.81805,3.30113 -3.81805,0.43426 0,-4.64455 4.9679,-8.93426 10.34675,-8.93426 4.43128,0 10.43467,8.65405 9.48362,13.67091 -0.42999,2.26819 -4.77383,2.70605 -10.17039,1.02516 z M 314.32591,191.4992 c -0.86723,-1.90337 -0.80235,-3.31952 0.28272,-6.17043 2.13266,-5.60338 4.0132,-5.56852 3.24171,0.0601 l -0.62785,4.58065 h 3.13593 c 3.32286,0 3.90048,0.83544 1.93592,2.8 -2.17534,2.17534 -6.72926,1.44936 -7.96843,-1.27032 z m 13.85405,-9.97982 c 0.49701,-3.06269 0.27745,-3.52103 -1.95516,-4.08138 -1.49347,-0.37483 -3.73776,0.001 -5.52526,0.92541 -2.7728,1.43387 -3.06216,1.42126 -3.66889,-0.15987 -0.9256,-2.41206 2.88866,-5.23402 7.07447,-5.23402 6.04861,0 9.7004,6.54596 5.81779,10.42857 -2.2057,2.2057 -2.37597,2.02217 -1.74295,-1.87871 z m -35.16824,-10.69865 c -2.2255,-4.2562 -2.64727,-6.14758 -2.2629,-10.1478 0.59005,-6.14084 3.04734,-8.25873 6.07239,-5.23368 2.95967,2.95966 2.97881,19.26171 0.0238,20.24672 -0.60387,0.20129 -2.32884,-1.98807 -3.83327,-4.86524 z m 2.18988,-10.08955 c -0.23919,-1.24391 -0.44398,-0.46166 -0.45508,1.73834 -0.0111,2.2 0.18461,3.21775 0.4349,2.26166 0.25029,-0.95609 0.25937,-2.75609 0.0202,-4 z m 45.03998,11.25416 c -1.38737,-1.09131 -2.79396,-3.06583 -3.12576,-4.38784 -1.97532,-7.8703 -12.87247,-22.28458 -22.78279,-30.13611 l -5.66131,-4.48521 -13.49404,0.64716 c -13.2937,0.63756 -13.56021,0.60838 -17.95154,-1.96511 -8.51941,-4.9927 -13.12241,-12.18901 -17.73884,-27.73284 -2.69792,-9.084038 -3.85972,-11.410228 -8.43196,-16.882848 -6.02434,-7.21067 -3.80563,-10.09333 2.55764,-3.32302 5.22561,5.55988 6.58101,8.16606 10.80968,20.785098 4.11753,12.28739 6.97803,16.93573 13.19198,21.43708 4.54821,3.29471 12.7483,4.6209 19.97047,3.22978 7.92648,-1.52677 13.74883,-0.16064 19.9236,4.67479 8.53212,6.68146 16.77357,16.74532 21.39271,26.12325 2.3027,4.675 4.61561,8.46919 5.13982,8.43152 2.34055,-0.16815 2.86896,-5.62521 1.28599,-13.28067 -1.19381,-5.77336 -2.73419,-9.48273 -6.09924,-14.68748 -5.18682,-8.02249 -8.01526,-14.28711 -7.29638,-16.1605 0.90735,-2.36451 3.29844,-1.35697 4.62093,1.94713 0.71546,1.7875 3.4535,6.64414 6.08453,10.79254 8.57331,13.5177 10.57309,32.36326 3.81783,35.97857 -2.56763,1.37415 -3.34909,1.24771 -6.21332,-1.00529 z M 186.99433,142.31259 c -1.1,-0.23372 -5.56178,-1.11026 -9.91506,-1.94789 -8.19557,-1.57692 -14.25072,-4.08262 -16.54434,-6.84626 -2.29666,-2.7673 -0.56461,-2.65024 5.54505,0.37476 5.59692,2.77114 13.21888,4.52527 32.91435,7.57498 l 8,1.23874 -9,0.0153 c -4.95,0.008 -9.9,-0.17592 -11,-0.40963 z m -57.03528,-7.81073 c -3.02345,-1.53066 -5.74577,-2.24892 -7.16948,-1.89159 -2.49049,0.62507 -3.00793,-0.52805 -1.09523,-2.44075 1.84415,-1.84415 4.36365,-1.43804 7.51155,1.21074 1.57575,1.32591 4.42278,3.0892 6.32672,3.91843 2.61067,1.13702 2.95023,1.52774 1.3812,1.58926 -1.14429,0.0449 -4.27393,-1.02888 -6.95476,-2.38609 z m 87.87502,-9.55795 c -7.33677,-0.77263 -17.91195,-3.73551 -16.90979,-4.73767 0.30773,-0.30773 3.59938,-0.0609 7.31478,0.5485 3.7154,0.60941 10.2833,1.58236 14.59533,2.16211 9.40169,1.26405 13.51548,3.04701 6.65994,2.88648 -2.475,-0.058 -7.72212,-0.44469 -11.66026,-0.85942 z M 113.7361,122.71952 c 0.60451,-1.8501 13.10429,-12.18184 22.25823,-18.39764 4.4,-2.98772 10.925,-7.886148 14.5,-10.885388 6.72206,-5.63947 20.76709,-13.6226 29.5,-16.76767 9.14847,-3.29473 24.4219,-6.57303 33.76697,-7.24777 8.38667,-0.60554 25.10417,0.97711 34.72055,3.287 2.92121,0.70169 13.01249,9.93528 13.01249,11.90653 0,2.51271 -3.58413,1.37943 -7.05384,-2.23038 -1.89539,-1.97192 -4.65096,-4.21657 -6.12349,-4.98809 -3.52572,-1.8473 -20.95315,-4.42659 -29.90901,-4.42659 -7.89687,0 -24.21799,2.99192 -33.41367,6.12525 -9.65743,3.29066 -24.48707,11.44949 -31.5,17.33037 -3.575,2.9979 -9.65,7.594858 -13.5,10.215458 -3.85,2.62059 -10.76435,7.59166 -15.36523,11.04682 -7.98102,5.99356 -11.78067,7.74884 -10.893,5.0321 z m 169.0499,-1.76819 c -2.7399,-1.39952 -6.19365,-4.74159 -9.89796,-9.5779 -4.72557,-6.16965 -5.77003,-8.26502 -6.16411,-12.366328 -0.43745,-4.55263 -0.28933,-4.98139 1.89796,-5.49378 3.00479,-0.70391 5.61602,-0.90274 9.22245,-0.70224 3.43784,0.19112 9.65,6.01383 9.65,9.045018 0,1.42466 1.07047,2.53385 3.37443,3.49651 5.12393,2.14091 12.62557,9.76907 12.62557,12.8385 0,3.08846 -1.18498,3.61202 -9.83392,4.34492 -5.57389,0.47233 -7.35559,0.21269 -10.87442,-1.5847 z m 16.67233,-2.98181 c -0.12846,-2.10376 -9.41566,-9.19231 -13.71399,-10.46735 -1.51504,-0.44941 -2.25,-1.44382 -2.25,-3.04427 0,-3.8127 -3.93121,-7.535338 -8.62192,-8.164488 -2.47188,-0.33155 -4.38689,-0.11865 -4.7893,0.53246 -1.84285,2.9818 10.49652,19.100528 16.41122,21.437718 1.7583,0.69479 13.0088,0.43959 12.96399,-0.29407 z m -74.59395,-6.44039 c -3.49477,-1.52087 -6.07913,-4.44228 -2.78409,-3.14719 1.05272,0.41377 4.38904,0.97756 7.41404,1.25286 7.50755,0.68327 8.89656,1.15607 6.97197,2.3732 -2.12403,1.34326 -7.96928,1.102 -11.60192,-0.47887 z m -40.22469,-1.90488 c -2.00457,-2.13377 -2.94205,-5.65473 -1.5056,-5.65473 0.69707,0 2.81796,2.51287 4.37983,5.18931 1.55188,2.65932 -0.50089,2.99172 -2.87423,0.46542 z m 118.33429,-1.52499 c -6.10285,-2.77234 -8.43681,-9.473528 -4.47964,-12.861768 2.99648,-2.56566 2.45185,-3.82039 -2.25,-5.18363 -2.3375,-0.67772 -6.48326,-2.37835 -9.21279,-3.77917 -2.72954,-1.40082 -11.72954,-4.99823 -20,-7.99425 -17.54066,-6.35418 -26.53722,-10.23507 -26.53722,-11.44748 0,-0.47489 0.45686,-0.86344 1.01525,-0.86344 2.20898,0 43.45823,14.12636 46.37403,15.88141 1.7109,1.02981 5.58573,2.64693 8.61073,3.5936 8.41584,2.63372 11.26474,7.16545 6.95598,11.06483 -2.8983,2.62293 -2.07588,5.628248 2.16102,7.896808 3.46745,1.85658 3.80118,1.86631 8.07177,0.23536 3.29618,-1.25882 4.88703,-2.60776 6.11682,-5.186648 1.86388,-3.9086 4.45052,-4.51733 7.03942,-1.65662 2.30123,2.542828 2.06525,4.171258 -0.60446,4.171258 -1.2427,0 -2.84207,0.93291 -3.55415,2.07313 -1.62041,2.59469 -8.71143,5.88295 -12.6864,5.88295 -1.65,0 -4.80916,-0.82185 -7.02036,-1.82634 z m -66.66485,-7.16458 c -4.21092,-2.224118 -5.67481,-3.965158 -3.33398,-3.965158 2.54569,0 9.6501,3.979158 8.99548,5.038338 -0.80222,1.29803 -1.37917,1.18866 -5.6615,-1.07318 z M 220.44082,64.988852 c -8.65406,-1.7991 -16.94649,-5.24381 -16.94649,-7.03965 0,-1.98924 -10.42451,-0.96435 -16.5,1.6222 -7.86291,3.34752 -9.5,3.81688 -9.5,2.72366 0,-1.48192 11.09227,-6.67917 16.65527,-7.80377 l 5.15526,-1.04218 -3.86744,-6.4898 c -4.14287,-6.951983 -4.88255,-9.564277 -2.44309,-8.628169 1.09391,0.419775 1.5,-0.121238 1.5,-1.998397 0,-3.411448 4.82679,-19.138146 6.11892,-19.936726 2.08413,-1.288062 2.08697,0.731715 0.0127,9.002227 -1.17241,4.674391 -2.13162,10.966816 -2.13162,13.983165 0,5.109545 0.33986,5.89266 4.97394,11.46107 2.73566,3.28723 5.54816,6.34259 6.25,6.78967 0.70183,0.44708 5.77606,1.95549 11.27606,3.352 6.65178,1.68897 10,3.00446 10,3.92891 0,2.03201 -1.10543,2.03995 -10.55351,0.0758 z m -46.94649,-10.37978 c 0,-0.74825 1.125,-3.01824 2.5,-5.04441 1.90097,-2.80124 2.5,-4.974075 2.5,-9.068125 0,-3.56136 0.53201,-5.916168 1.57143,-6.955591 2.31744,-2.317446 3.7967,-1.971779 2.90389,0.678571 -0.41687,1.2375 -0.84079,4.768813 -0.94206,7.847362 -0.14454,4.394243 -0.81274,6.485373 -3.10869,9.728653 -2.90776,4.10754 -5.42457,5.41292 -5.42457,2.81354 z"
     style="fill:#000000" />
  <path
     id="path912"
     d="m 273.77188,285.13053 c 0,0 -12.10191,66.30881 -84.88983,52.05509"
     style="fill:none;stroke:#5a5a5a;stroke-width:1.88976383;stroke-linecap:butt;stroke-linejoin:miter;stroke-miterlimit:4;stroke-dasharray:none;stroke-opacity:1" />
  <g
     transform="translate(-60.416914,-54.954828)"
     id="text916"
     style="font-style:normal;font-variant:normal;font-weight:normal;font-stretch:normal;font-size:40px;line-height:1.25;font-family:'Liberation Mono';-inkscape-font-specification:'Liberation Mono';letter-spacing:0.03px;word-spacing:0px;fill:#000000;fill-opacity:1;stroke:none"
     aria-label="Epiglottis">
    <path
       id="path1080"
       style="font-style:normal;font-variant:normal;font-weight:normal;font-stretch:normal;font-size:24px;font-family:sans-serif;-inkscape-font-specification:sans-serif"
       d="m 131.12689,381.05112 h 11.0625 v 1.99218 h -8.69531 v 5.17969 h 8.33203 v 1.99219 h -8.33203 v 6.33984 h 8.90625 v 1.99219 h -11.27344 z" />
    <path
       id="path1082"
       style="font-style:normal;font-variant:normal;font-weight:normal;font-stretch:normal;font-size:24px;font-family:sans-serif;-inkscape-font-specification:sans-serif"
       d="m 148.33658,396.57846 v 6.96094 h -2.16797 v -18.11719 h 2.16797 v 1.99219 q 0.67969,-1.17188 1.71094,-1.73438 1.04297,-0.57422 2.48437,-0.57422 2.39063,0 3.87891,1.89844 1.5,1.89844 1.5,4.99219 0,3.09375 -1.5,4.99219 -1.48828,1.89843 -3.87891,1.89843 -1.4414,0 -2.48437,-0.5625 -1.03125,-0.57421 -1.71094,-1.74609 z m 7.33594,-4.58203 q 0,-2.37891 -0.98438,-3.72656 -0.97265,-1.35938 -2.68359,-1.35938 -1.71094,0 -2.69531,1.35938 -0.97266,1.34765 -0.97266,3.72656 0,2.37891 0.97266,3.73828 0.98437,1.34766 2.69531,1.34766 1.71094,0 2.68359,-1.34766 0.98438,-1.35937 0.98438,-3.73828 z" />
    <path
       id="path1084"
       style="font-style:normal;font-variant:normal;font-weight:normal;font-stretch:normal;font-size:24px;font-family:sans-serif;-inkscape-font-specification:sans-serif"
       d="m 161.51502,385.42221 h 2.15625 v 13.125 h -2.15625 z m 0,-5.10937 h 2.15625 v 2.73046 h -2.15625 z" />
    <path
       id="path1086"
       style="font-style:normal;font-variant:normal;font-weight:normal;font-stretch:normal;font-size:24px;font-family:sans-serif;-inkscape-font-specification:sans-serif"
       d="m 176.83799,391.83237 q 0,-2.34375 -0.97266,-3.63282 -0.96094,-1.28906 -2.70703,-1.28906 -1.73438,0 -2.70703,1.28906 -0.96094,1.28907 -0.96094,3.63282 0,2.33203 0.96094,3.62109 0.97265,1.28906 2.70703,1.28906 1.74609,0 2.70703,-1.28906 0.97266,-1.28906 0.97266,-3.62109 z m 2.15625,5.08593 q 0,3.35157 -1.48829,4.98047 -1.48828,1.64063 -4.55859,1.64063 -1.13672,0 -2.14453,-0.17578 -1.00781,-0.16407 -1.95703,-0.51563 v -2.09765 q 0.94922,0.51562 1.875,0.76171 0.92578,0.2461 1.88672,0.2461 2.12109,0 3.17578,-1.11328 1.05469,-1.10157 1.05469,-3.33985 v -1.0664 q -0.66797,1.16015 -1.71094,1.73437 -1.04297,0.57422 -2.4961,0.57422 -2.41406,0 -3.89062,-1.83984 -1.47656,-1.83985 -1.47656,-4.875 0,-3.04688 1.47656,-4.88672 1.47656,-1.83985 3.89062,-1.83985 1.45313,0 2.4961,0.57422 1.04297,0.57422 1.71094,1.73438 v -1.99219 h 2.15625 z" />
    <path
       id="path1088"
       style="font-style:normal;font-variant:normal;font-weight:normal;font-stretch:normal;font-size:24px;font-family:sans-serif;-inkscape-font-specification:sans-serif"
       d="m 183.46564,380.31284 h 2.15625 v 18.23437 h -2.15625 z" />
    <path
       id="path1090"
       style="font-style:normal;font-variant:normal;font-weight:normal;font-stretch:normal;font-size:24px;font-family:sans-serif;-inkscape-font-specification:sans-serif"
       d="m 195.23783,386.93393 q -1.73437,0 -2.74219,1.35937 -1.00781,1.34766 -1.00781,3.70313 0,2.35547 0.99609,3.71484 1.00782,1.34766 2.75391,1.34766 1.72266,0 2.73047,-1.35938 1.00781,-1.35937 1.00781,-3.70312 0,-2.33203 -1.00781,-3.69141 -1.00781,-1.37109 -2.73047,-1.37109 z m 0,-1.82813 q 2.8125,0 4.41797,1.82813 1.60547,1.82812 1.60547,5.0625 0,3.22266 -1.60547,5.0625 -1.60547,1.82812 -4.41797,1.82812 -2.82422,0 -4.42969,-1.82812 -1.59375,-1.83984 -1.59375,-5.0625 0,-3.23438 1.59375,-5.0625 1.60547,-1.82813 4.42969,-1.82813 z" />
    <path
       id="path1092"
       style="font-style:normal;font-variant:normal;font-weight:normal;font-stretch:normal;font-size:24px;font-family:sans-serif;-inkscape-font-specification:sans-serif"
       d="m 206.98658,381.69565 v 3.72656 h 4.44141 v 1.67578 h -4.44141 v 7.125 q 0,1.60547 0.43359,2.0625 0.44532,0.45703 1.79297,0.45703 h 2.21485 v 1.80469 h -2.21485 q -2.49609,0 -3.44531,-0.92578 -0.94922,-0.9375 -0.94922,-3.39844 v -7.125 h -1.58203 v -1.67578 h 1.58203 v -3.72656 z" />
    <path
       id="path1094"
       style="font-style:normal;font-variant:normal;font-weight:normal;font-stretch:normal;font-size:24px;font-family:sans-serif;-inkscape-font-specification:sans-serif"
       d="m 216.43845,381.69565 v 3.72656 h 4.44141 v 1.67578 h -4.44141 v 7.125 q 0,1.60547 0.4336,2.0625 0.44531,0.45703 1.79297,0.45703 h 2.21484 v 1.80469 h -2.21484 q -2.4961,0 -3.44532,-0.92578 -0.94922,-0.9375 -0.94922,-3.39844 v -7.125 h -1.58203 v -1.67578 h 1.58203 v -3.72656 z" />
    <path
       id="path1096"
       style="font-style:normal;font-variant:normal;font-weight:normal;font-stretch:normal;font-size:24px;font-family:sans-serif;-inkscape-font-specification:sans-serif"
       d="m 223.75751,385.42221 h 2.15625 v 13.125 h -2.15625 z m 0,-5.10937 h 2.15625 v 2.73046 h -2.15625 z" />
    <path
       id="path1098"
       style="font-style:normal;font-variant:normal;font-weight:normal;font-stretch:normal;font-size:24px;font-family:sans-serif;-inkscape-font-specification:sans-serif"
       d="m 238.81095,385.80893 v 2.03906 q -0.91406,-0.46875 -1.89844,-0.70312 -0.98437,-0.23438 -2.03906,-0.23438 -1.60547,0 -2.41406,0.49219 -0.79688,0.49219 -0.79688,1.47656 0,0.75 0.57422,1.1836 0.57422,0.42187 2.3086,0.80859 l 0.73828,0.16406 q 2.29687,0.49219 3.25781,1.39453 0.97266,0.89063 0.97266,2.4961 0,1.82812 -1.45313,2.89453 -1.44141,1.0664 -3.97266,1.0664 -1.05468,0 -2.20312,-0.21093 -1.13672,-0.19922 -2.40234,-0.60938 v -2.22656 q 1.19531,0.62109 2.35546,0.9375 1.16016,0.30469 2.29688,0.30469 1.52344,0 2.34375,-0.51563 0.82031,-0.52734 0.82031,-1.47656 0,-0.87891 -0.59765,-1.34766 -0.58594,-0.46875 -2.58985,-0.90234 l -0.75,-0.17578 q -2.0039,-0.42188 -2.89453,-1.28906 -0.89062,-0.87891 -0.89062,-2.40235 0,-1.85156 1.3125,-2.85937 1.3125,-1.00782 3.72656,-1.00782 1.19531,0 2.25,0.17579 1.05469,0.17578 1.94531,0.52734 z" />
  </g>
  <path
     id="path920"
     d="m 193.28671,366.01612 75.27966,-40.04236"
     style="fill:none;stroke:#5a5a5a;stroke-width:1.88976383;stroke-linecap:butt;stroke-linejoin:miter;stroke-miterlimit:4;stroke-dasharray:none;stroke-opacity:1" />
  <g
     transform="translate(-60.416914,-54.954828)"
     id="text924"
     style="font-style:normal;font-variant:normal;font-weight:normal;font-stretch:normal;font-size:40px;line-height:1.25;font-family:'Liberation Mono';-inkscape-font-specification:'Liberation Mono';letter-spacing:0.03px;word-spacing:0px;fill:#000000;fill-opacity:1;stroke:none"
     aria-label="Larynx">
    <path
       id="path1101"
       style="font-style:normal;font-variant:normal;font-weight:normal;font-stretch:normal;font-size:24px;font-family:sans-serif;-inkscape-font-specification:sans-serif"
       d="m 165.56332,410.6825 h 2.36719 v 15.5039 h 8.51953 v 1.99219 h -10.88672 z" />
    <path
       id="path1103"
       style="font-style:normal;font-variant:normal;font-weight:normal;font-stretch:normal;font-size:24px;font-family:sans-serif;-inkscape-font-specification:sans-serif"
       d="m 184.82379,421.58093 q -2.61328,0 -3.62109,0.59766 -1.00781,0.59766 -1.00781,2.03906 0,1.14844 0.75,1.82813 0.76171,0.66797 2.0625,0.66797 1.79296,0 2.87109,-1.26563 1.08984,-1.27734 1.08984,-3.38672 v -0.48047 z m 4.30078,-0.89062 v 7.48828 h -2.15625 v -1.99219 q -0.73828,1.19531 -1.83984,1.76953 -1.10156,0.5625 -2.69531,0.5625 -2.01563,0 -3.21094,-1.125 -1.18359,-1.13672 -1.18359,-3.03515 0,-2.21485 1.47656,-3.33985 1.48828,-1.125 4.42969,-1.125 h 3.02343 v -0.21093 q 0,-1.48829 -0.98437,-2.29688 -0.97266,-0.82031 -2.74219,-0.82031 -1.125,0 -2.19141,0.26953 -1.0664,0.26953 -2.05078,0.80859 v -1.99218 q 1.1836,-0.45704 2.29688,-0.67969 1.11328,-0.23438 2.16797,-0.23438 2.84765,0 4.2539,1.47657 1.40625,1.47656 1.40625,4.47656 z" />
    <path
       id="path1105"
       style="font-style:normal;font-variant:normal;font-weight:normal;font-stretch:normal;font-size:24px;font-family:sans-serif;-inkscape-font-specification:sans-serif"
       d="m 201.21317,417.06921 q -0.36328,-0.21093 -0.79688,-0.30468 -0.42187,-0.10547 -0.9375,-0.10547 -1.82812,0 -2.8125,1.19531 -0.97265,1.18359 -0.97265,3.41016 v 6.91406 h -2.16797 v -13.125 h 2.16797 v 2.03906 q 0.67968,-1.19531 1.76953,-1.76953 1.08984,-0.58594 2.64843,-0.58594 0.22266,0 0.49219,0.0352 0.26953,0.0234 0.59766,0.082 z" />
    <path
       id="path1107"
       style="font-style:normal;font-variant:normal;font-weight:normal;font-stretch:normal;font-size:24px;font-family:sans-serif;-inkscape-font-specification:sans-serif"
       d="m 208.98926,429.39734 q -0.91406,2.34375 -1.78125,3.05859 -0.86719,0.71485 -2.32031,0.71485 h -1.72266 v -1.80469 h 1.26563 q 0.89062,0 1.38281,-0.42188 0.49219,-0.42187 1.08984,-1.99218 l 0.38672,-0.98438 -5.30859,-12.91406 h 2.28516 l 4.10156,10.26562 4.10156,-10.26562 h 2.28516 z" />
    <path
       id="path1109"
       style="font-style:normal;font-variant:normal;font-weight:normal;font-stretch:normal;font-size:24px;font-family:sans-serif;-inkscape-font-specification:sans-serif"
       d="m 228.6716,420.25671 v 7.92188 h -2.15625 v -7.85156 q 0,-1.86328 -0.72656,-2.78907 -0.72656,-0.92578 -2.17969,-0.92578 -1.74609,0 -2.7539,1.11328 -1.00781,1.11329 -1.00781,3.03516 v 7.41797 h -2.16797 v -13.125 h 2.16797 v 2.03906 q 0.77343,-1.18359 1.8164,-1.76953 1.05469,-0.58594 2.42578,-0.58594 2.26172,0 3.42188,1.40625 1.16015,1.39453 1.16015,4.11328 z" />
    <path
       id="path1111"
       style="font-style:normal;font-variant:normal;font-weight:normal;font-stretch:normal;font-size:24px;font-family:sans-serif;-inkscape-font-specification:sans-serif"
       d="m 243.93598,415.05359 -4.74609,6.38672 4.99219,6.73828 h -2.54297 l -3.82032,-5.15625 -3.82031,5.15625 h -2.54297 l 5.09766,-6.86719 -4.66406,-6.25781 h 2.54297 l 3.48046,4.67578 3.48047,-4.67578 z" />
  </g>
  <g
     transform="translate(-60.416914,-54.954828)"
     id="text928"
     style="font-style:normal;font-variant:normal;font-weight:normal;font-stretch:normal;font-size:40px;line-height:1.25;font-family:'Liberation Mono';-inkscape-font-specification:'Liberation Mono';letter-spacing:0.03px;word-spacing:0px;fill:#000000;fill-opacity:1;stroke:none"
     aria-label="Trachea">
    <path
       id="path1046"
       style="font-style:normal;font-variant:normal;font-weight:normal;font-stretch:normal;font-size:24px;font-family:sans-serif;-inkscape-font-specification:sans-serif"
       d="m 148.69872,464.76126 h 14.80078 v 1.99219 h -6.21094 v 15.5039 h -2.37891 v -15.5039 h -6.21093 z" />
    <path
       id="path1048"
       style="font-style:normal;font-variant:normal;font-weight:normal;font-stretch:normal;font-size:24px;font-family:sans-serif;-inkscape-font-specification:sans-serif"
       d="m 169.82246,471.14798 q -0.36328,-0.21094 -0.79687,-0.30469 -0.42188,-0.10547 -0.9375,-0.10547 -1.82813,0 -2.8125,1.19532 -0.97266,1.18359 -0.97266,3.41015 v 6.91406 h -2.16797 v -13.125 h 2.16797 v 2.03907 q 0.67969,-1.19532 1.76953,-1.76953 1.08985,-0.58594 2.64844,-0.58594 0.22266,0 0.49219,0.0351 0.26953,0.0234 0.59766,0.082 z" />
    <path
       id="path1050"
       style="font-style:normal;font-variant:normal;font-weight:normal;font-stretch:normal;font-size:24px;font-family:sans-serif;-inkscape-font-specification:sans-serif"
       d="m 178.10246,475.6597 q -2.61328,0 -3.62109,0.59765 -1.00781,0.59766 -1.00781,2.03907 0,1.14843 0.75,1.82812 0.76172,0.66797 2.0625,0.66797 1.79297,0 2.87109,-1.26562 1.08985,-1.27735 1.08985,-3.38672 v -0.48047 z m 4.30079,-0.89063 v 7.48828 H 180.247 v -1.99218 q -0.73829,1.19531 -1.83985,1.76953 -1.10156,0.5625 -2.69531,0.5625 -2.01563,0 -3.21094,-1.125 -1.18359,-1.13672 -1.18359,-3.03516 0,-2.21484 1.47656,-3.33984 1.48828,-1.125 4.42969,-1.125 h 3.02344 v -0.21094 q 0,-1.48828 -0.98438,-2.29687 -0.97266,-0.82032 -2.74219,-0.82032 -1.125,0 -2.1914,0.26953 -1.06641,0.26954 -2.05078,0.8086 v -1.99219 q 1.18359,-0.45703 2.29687,-0.67969 1.11328,-0.23437 2.16797,-0.23437 2.84766,0 4.25391,1.47656 1.40625,1.47656 1.40625,4.47656 z" />
    <path
       id="path1052"
       style="font-style:normal;font-variant:normal;font-weight:normal;font-stretch:normal;font-size:24px;font-family:sans-serif;-inkscape-font-specification:sans-serif"
       d="m 196.33168,469.63626 v 2.01563 q -0.91406,-0.50391 -1.83984,-0.75 -0.91406,-0.25782 -1.85156,-0.25782 -2.09766,0 -3.25781,1.33594 -1.16016,1.32422 -1.16016,3.72656 0,2.40235 1.16016,3.73828 1.16015,1.32422 3.25781,1.32422 0.9375,0 1.85156,-0.24609 0.92578,-0.25781 1.83984,-0.76172 v 1.99219 q -0.90234,0.42187 -1.875,0.63281 -0.96093,0.21094 -2.05078,0.21094 -2.96484,0 -4.71093,-1.86328 -1.7461,-1.86328 -1.7461,-5.02735 0,-3.21093 1.75781,-5.05078 1.76954,-1.83984 4.83985,-1.83984 0.99609,0 1.94531,0.21094 0.94922,0.19921 1.83984,0.60937 z" />
    <path
       id="path1054"
       style="font-style:normal;font-variant:normal;font-weight:normal;font-stretch:normal;font-size:24px;font-family:sans-serif;-inkscape-font-specification:sans-serif"
       d="m 211.04528,474.33548 v 7.92187 h -2.15625 v -7.85156 q 0,-1.86328 -0.72657,-2.78906 -0.72656,-0.92578 -2.17968,-0.92578 -1.7461,0 -2.75391,1.11328 -1.00781,1.11328 -1.00781,3.03516 v 7.41796 h -2.16797 v -18.23437 h 2.16797 v 7.14844 q 0.77344,-1.1836 1.8164,-1.76953 1.05469,-0.58594 2.42579,-0.58594 2.26171,0 3.42187,1.40625 1.16016,1.39453 1.16016,4.11328 z" />
    <path
       id="path1056"
       style="font-style:normal;font-variant:normal;font-weight:normal;font-stretch:normal;font-size:24px;font-family:sans-serif;-inkscape-font-specification:sans-serif"
       d="m 226.62606,475.15579 v 1.05469 H 216.712 q 0.14062,2.22656 1.33594,3.39844 1.20703,1.16015 3.35156,1.16015 1.24219,0 2.40234,-0.30468 1.17188,-0.30469 2.32031,-0.91407 v 2.03907 q -1.16015,0.49218 -2.3789,0.75 -1.21875,0.25781 -2.47266,0.25781 -3.14062,0 -4.98047,-1.82813 -1.82812,-1.82812 -1.82812,-4.94531 0,-3.22266 1.73437,-5.10937 1.7461,-1.89844 4.69922,-1.89844 2.64844,0 4.1836,1.71094 1.54687,1.69921 1.54687,4.6289 z m -2.15625,-0.63281 q -0.0234,-1.76953 -0.99609,-2.82422 -0.96094,-1.05469 -2.55469,-1.05469 -1.80469,0 -2.89453,1.01953 -1.07813,1.01954 -1.24219,2.8711 z" />
    <path
       id="path1058"
       style="font-style:normal;font-variant:normal;font-weight:normal;font-stretch:normal;font-size:24px;font-family:sans-serif;-inkscape-font-specification:sans-serif"
       d="m 236.15997,475.6597 q -2.61329,0 -3.6211,0.59765 -1.00781,0.59766 -1.00781,2.03907 0,1.14843 0.75,1.82812 0.76172,0.66797 2.0625,0.66797 1.79297,0 2.87109,-1.26562 1.08985,-1.27735 1.08985,-3.38672 v -0.48047 z m 4.30078,-0.89063 v 7.48828 h -2.15625 v -1.99218 q -0.73828,1.19531 -1.83985,1.76953 -1.10156,0.5625 -2.69531,0.5625 -2.01562,0 -3.21094,-1.125 -1.18359,-1.13672 -1.18359,-3.03516 0,-2.21484 1.47656,-3.33984 1.48828,-1.125 4.42969,-1.125 h 3.02344 v -0.21094 q 0,-1.48828 -0.98438,-2.29687 -0.97265,-0.82032 -2.74219,-0.82032 -1.125,0 -2.1914,0.26953 -1.06641,0.26954 -2.05078,0.8086 v -1.99219 q 1.18359,-0.45703 2.29687,-0.67969 1.11328,-0.23437 2.16797,-0.23437 2.84766,0 4.25391,1.47656 1.40625,1.47656 1.40625,4.47656 z" />
  </g>
  <path
     id="path930"
     d="m 189.72802,417.82975 105.71186,-6.40678"
     style="fill:none;stroke:#5a5a5a;stroke-width:1.88976383;stroke-linecap:butt;stroke-linejoin:miter;stroke-miterlimit:4;stroke-dasharray:none;stroke-opacity:1" />
  <path
     id="path932"
     d="m 287.28188,237.96339 c 0,0 -126.34126,84.5874 -200.702204,51.62907"
     style="fill:none;stroke:#5a5a5a;stroke-width:1.88976383;stroke-linecap:butt;stroke-linejoin:miter;stroke-miterlimit:4;stroke-dasharray:none;stroke-opacity:1" />
  <g
     transform="translate(-60.416914,-54.954828)"
     id="text936"
     style="font-style:normal;font-variant:normal;font-weight:normal;font-stretch:normal;font-size:40px;line-height:1.25;font-family:'Liberation Mono';-inkscape-font-specification:'Liberation Mono';letter-spacing:0.03px;word-spacing:0px;fill:#000000;fill-opacity:1;stroke:none"
     aria-label="Pharynx">
    <path
       id="path1114"
       style="font-style:normal;font-variant:normal;font-weight:normal;font-stretch:normal;font-size:24px;font-family:sans-serif;-inkscape-font-specification:sans-serif"
       d="m 63.7439,320.07336 v 6.57422 h 2.976563 q 1.652344,0 2.554687,-0.85547 0.902344,-0.85546 0.902344,-2.4375 0,-1.57031 -0.902344,-2.42578 -0.902343,-0.85547 -2.554687,-0.85547 z m -2.367187,-1.94531 h 5.34375 q 2.941406,0 4.441406,1.33594 1.511719,1.32422 1.511719,3.89062 0,2.58985 -1.511719,3.91407 -1.5,1.32422 -4.441406,1.32422 H 63.7439 v 7.03125 h -2.367187 z" />
    <path
       id="path1116"
       style="font-style:normal;font-variant:normal;font-weight:normal;font-stretch:normal;font-size:24px;font-family:sans-serif;-inkscape-font-specification:sans-serif"
       d="m 86.707494,327.70227 v 7.92188 h -2.15625 v -7.85157 q 0,-1.86328 -0.726563,-2.78906 -0.726562,-0.92578 -2.179687,-0.92578 -1.746094,0 -2.753906,1.11328 -1.007813,1.11328 -1.007813,3.03516 v 7.41797 h -2.167969 v -18.23438 h 2.167969 v 7.14844 q 0.773438,-1.1836 1.816406,-1.76953 1.054688,-0.58594 2.425782,-0.58594 2.261718,0 3.421875,1.40625 1.160156,1.39453 1.160156,4.11328 z" />
    <path
       id="path1118"
       style="font-style:normal;font-variant:normal;font-weight:normal;font-stretch:normal;font-size:24px;font-family:sans-serif;-inkscape-font-specification:sans-serif"
       d="m 97.026556,329.02649 q -2.613281,0 -3.621094,0.59766 -1.007812,0.59765 -1.007812,2.03906 0,1.14844 0.75,1.82812 0.761719,0.66797 2.0625,0.66797 1.792969,0 2.871094,-1.26562 1.089843,-1.27735 1.089843,-3.38672 v -0.48047 z m 4.300784,-0.89063 v 7.48829 h -2.156253 v -1.99219 q -0.738281,1.19531 -1.839843,1.76953 -1.101563,0.5625 -2.695313,0.5625 -2.015625,0 -3.210937,-1.125 -1.183594,-1.13672 -1.183594,-3.03516 0,-2.21484 1.476562,-3.33984 1.488282,-1.125 4.429688,-1.125 h 3.023437 v -0.21094 q 0,-1.48828 -0.984375,-2.29687 -0.972656,-0.82032 -2.742187,-0.82032 -1.125,0 -2.191406,0.26954 -1.066407,0.26953 -2.050782,0.80859 v -1.99219 q 1.183594,-0.45703 2.296875,-0.67969 1.113282,-0.23437 2.167969,-0.23437 2.847656,0 4.253906,1.47656 1.406253,1.47656 1.406253,4.47656 z" />
    <path
       id="path1120"
       style="font-style:normal;font-variant:normal;font-weight:normal;font-stretch:normal;font-size:24px;font-family:sans-serif;-inkscape-font-specification:sans-serif"
       d="m 113.41593,324.51477 q -0.36328,-0.21094 -0.79687,-0.30469 -0.42188,-0.10547 -0.9375,-0.10547 -1.82813,0 -2.8125,1.19532 -0.97266,1.18359 -0.97266,3.41015 v 6.91407 h -2.16797 v -13.125 h 2.16797 v 2.03906 q 0.67969,-1.19531 1.76953,-1.76953 1.08985,-0.58594 2.64844,-0.58594 0.22266,0 0.49219,0.0352 0.26953,0.0234 0.59765,0.082 z" />
    <path
       id="path1122"
       style="font-style:normal;font-variant:normal;font-weight:normal;font-stretch:normal;font-size:24px;font-family:sans-serif;-inkscape-font-specification:sans-serif"
       d="m 121.19202,336.8429 q -0.91406,2.34375 -1.78125,3.05859 -0.86718,0.71484 -2.32031,0.71484 h -1.72265 v -1.80468 h 1.26562 q 0.89063,0 1.38281,-0.42188 0.49219,-0.42187 1.08985,-1.99219 l 0.38672,-0.98437 -5.3086,-12.91406 h 2.28516 l 4.10156,10.26562 4.10156,-10.26562 h 2.28516 z" />
    <path
       id="path1124"
       style="font-style:normal;font-variant:normal;font-weight:normal;font-stretch:normal;font-size:24px;font-family:sans-serif;-inkscape-font-specification:sans-serif"
       d="m 140.87437,327.70227 v 7.92188 h -2.15625 v -7.85157 q 0,-1.86328 -0.72656,-2.78906 -0.72656,-0.92578 -2.17969,-0.92578 -1.74609,0 -2.75391,1.11328 -1.00781,1.11328 -1.00781,3.03516 v 7.41797 h -2.16797 v -13.125 h 2.16797 v 2.03906 q 0.77344,-1.1836 1.81641,-1.76953 1.05469,-0.58594 2.42578,-0.58594 2.26172,0 3.42187,1.40625 1.16016,1.39453 1.16016,4.11328 z" />
    <path
       id="path1126"
       style="font-style:normal;font-variant:normal;font-weight:normal;font-stretch:normal;font-size:24px;font-family:sans-serif;-inkscape-font-specification:sans-serif"
       d="m 156.13874,322.49915 -4.74609,6.38671 4.99219,6.73829 h -2.54297 l -3.82031,-5.15625 -3.82032,5.15625 h -2.54296 l 5.09765,-6.86719 -4.66406,-6.25781 h 2.54297 l 3.48047,4.67578 3.48047,-4.67578 z" />
  </g>
  <path
     id="path938"
     d="m 301.60716,331.33847 c 0,0 -74.21405,86.90955 -167.08474,65.39073"
     style="fill:none;stroke:#5a5a5a;stroke-width:1.88976383;stroke-linecap:butt;stroke-linejoin:miter;stroke-miterlimit:4;stroke-dasharray:none;stroke-opacity:1" />
  <g
     transform="translate(-77.234711,-53.353133)"
     id="text942"
     style="font-style:normal;font-variant:normal;font-weight:normal;font-stretch:normal;font-size:40px;line-height:1.25;font-family:'Liberation Mono';-inkscape-font-specification:'Liberation Mono';letter-spacing:0.03px;word-spacing:0px;fill:#000000;fill-opacity:1;stroke:none"
     aria-label="Esophagus">
    <path
       id="path1129"
       style="font-style:normal;font-variant:normal;font-weight:normal;font-stretch:normal;font-size:24px;font-family:sans-serif;-inkscape-font-specification:sans-serif"
       d="m 77.234711,432.98062 h 11.0625 v 1.99219 h -8.695313 v 5.17969 h 8.332031 v 1.99218 h -8.332031 v 6.33985 h 8.90625 v 1.99219 H 77.234711 Z" />
    <path
       id="path1131"
       style="font-style:normal;font-variant:normal;font-weight:normal;font-stretch:normal;font-size:24px;font-family:sans-serif;-inkscape-font-specification:sans-serif"
       d="m 100.72565,437.73843 v 2.03907 q -0.914065,-0.46875 -1.89844,-0.70313 -0.984375,-0.23437 -2.039062,-0.23437 -1.605469,0 -2.414063,0.49218 -0.796875,0.49219 -0.796875,1.47657 0,0.75 0.574219,1.18359 0.574219,0.42188 2.308594,0.80859 l 0.738281,0.16407 q 2.296875,0.49218 3.257816,1.39453 0.97265,0.89062 0.97265,2.49609 0,1.82813 -1.453122,2.89453 -1.441406,1.06641 -3.972656,1.06641 -1.054688,0 -2.203125,-0.21094 -1.136719,-0.19922 -2.402344,-0.60937 v -2.22657 q 1.195312,0.6211 2.355469,0.9375 1.160156,0.30469 2.296875,0.30469 1.523437,0 2.34375,-0.51562 0.820312,-0.52735 0.820312,-1.47657 0,-0.8789 -0.597656,-1.34765 -0.585938,-0.46875 -2.589844,-0.90235 l -0.75,-0.17578 q -2.003906,-0.42187 -2.894531,-1.28906 -0.890625,-0.87891 -0.890625,-2.40234 0,-1.85157 1.3125,-2.85938 1.3125,-1.00781 3.726562,-1.00781 1.195313,0 2.25,0.17578 1.054688,0.17578 1.945315,0.52734 z" />
    <path
       id="path1133"
       style="font-style:normal;font-variant:normal;font-weight:normal;font-stretch:normal;font-size:24px;font-family:sans-serif;-inkscape-font-specification:sans-serif"
       d="m 109.99002,438.86343 q -1.73437,0 -2.74218,1.35938 -1.00782,1.34766 -1.00782,3.70312 0,2.35547 0.9961,3.71485 1.00781,1.34765 2.7539,1.34765 1.72266,0 2.73047,-1.35937 1.00781,-1.35938 1.00781,-3.70313 0,-2.33203 -1.00781,-3.6914 -1.00781,-1.3711 -2.73047,-1.3711 z m 0,-1.82812 q 2.8125,0 4.41797,1.82812 1.60547,1.82813 1.60547,5.0625 0,3.22266 -1.60547,5.0625 -1.60547,1.82813 -4.41797,1.82813 -2.82422,0 -4.42968,-1.82813 -1.59375,-1.83984 -1.59375,-5.0625 0,-3.23437 1.59375,-5.0625 1.60546,-1.82812 4.42968,-1.82812 z" />
    <path
       id="path1135"
       style="font-style:normal;font-variant:normal;font-weight:normal;font-stretch:normal;font-size:24px;font-family:sans-serif;-inkscape-font-specification:sans-serif"
       d="m 121.6919,448.50797 v 6.96093 h -2.16797 v -18.11718 h 2.16797 v 1.99218 q 0.67969,-1.17187 1.71094,-1.73437 1.04296,-0.57422 2.48437,-0.57422 2.39063,0 3.87891,1.89844 1.5,1.89843 1.5,4.99218 0,3.09375 -1.5,4.99219 -1.48828,1.89844 -3.87891,1.89844 -1.44141,0 -2.48437,-0.5625 -1.03125,-0.57422 -1.71094,-1.74609 z m 7.33594,-4.58204 q 0,-2.3789 -0.98438,-3.72656 -0.97266,-1.35937 -2.68359,-1.35937 -1.71094,0 -2.69532,1.35937 -0.97265,1.34766 -0.97265,3.72656 0,2.37891 0.97265,3.73829 0.98438,1.34765 2.69532,1.34765 1.71093,0 2.68359,-1.34765 0.98438,-1.35938 0.98438,-3.73829 z" />
    <path
       id="path1137"
       style="font-style:normal;font-variant:normal;font-weight:normal;font-stretch:normal;font-size:24px;font-family:sans-serif;-inkscape-font-specification:sans-serif"
       d="m 145.78049,442.55484 v 7.92188 h -2.15625 v -7.85157 q 0,-1.86328 -0.72656,-2.78906 -0.72656,-0.92578 -2.17969,-0.92578 -1.74609,0 -2.75391,1.11328 -1.00781,1.11328 -1.00781,3.03516 v 7.41797 h -2.16797 v -18.23438 h 2.16797 v 7.14844 q 0.77344,-1.1836 1.81641,-1.76953 1.05469,-0.58594 2.42578,-0.58594 2.26172,0 3.42187,1.40625 1.16016,1.39453 1.16016,4.11328 z" />
    <path
       id="path1139"
       style="font-style:normal;font-variant:normal;font-weight:normal;font-stretch:normal;font-size:24px;font-family:sans-serif;-inkscape-font-specification:sans-serif"
       d="m 156.09956,443.87906 q -2.61329,0 -3.6211,0.59766 -1.00781,0.59765 -1.00781,2.03906 0,1.14844 0.75,1.82812 0.76172,0.66797 2.0625,0.66797 1.79297,0 2.87109,-1.26562 1.08985,-1.27735 1.08985,-3.38672 v -0.48047 z m 4.30078,-0.89063 v 7.48829 h -2.15625 v -1.99219 q -0.73828,1.19531 -1.83985,1.76953 -1.10156,0.5625 -2.69531,0.5625 -2.01562,0 -3.21094,-1.125 -1.18359,-1.13672 -1.18359,-3.03516 0,-2.21484 1.47656,-3.33984 1.48828,-1.125 4.42969,-1.125 h 3.02344 v -0.21094 q 0,-1.48828 -0.98438,-2.29687 -0.97265,-0.82032 -2.74219,-0.82032 -1.125,0 -2.1914,0.26954 -1.06641,0.26953 -2.05078,0.80859 v -1.99219 q 1.18359,-0.45703 2.29687,-0.67969 1.11328,-0.23437 2.16797,-0.23437 2.84766,0 4.25391,1.47656 1.40625,1.47656 1.40625,4.47656 z" />
    <path
       id="path1141"
       style="font-style:normal;font-variant:normal;font-weight:normal;font-stretch:normal;font-size:24px;font-family:sans-serif;-inkscape-font-specification:sans-serif"
       d="m 173.52018,443.76187 q 0,-2.34375 -0.97266,-3.63281 -0.96093,-1.28906 -2.70703,-1.28906 -1.73437,0 -2.70703,1.28906 -0.96094,1.28906 -0.96094,3.63281 0,2.33203 0.96094,3.6211 0.97266,1.28906 2.70703,1.28906 1.7461,0 2.70703,-1.28906 0.97266,-1.28907 0.97266,-3.6211 z m 2.15625,5.08594 q 0,3.35156 -1.48828,4.98047 -1.48828,1.64062 -4.5586,1.64062 -1.13671,0 -2.14453,-0.17578 -1.00781,-0.16406 -1.95703,-0.51562 v -2.09766 q 0.94922,0.51563 1.875,0.76172 0.92578,0.24609 1.88672,0.24609 2.12109,0 3.17578,-1.11328 1.05469,-1.10156 1.05469,-3.33984 v -1.06641 q -0.66797,1.16016 -1.71094,1.73438 -1.04297,0.57422 -2.49609,0.57422 -2.41406,0 -3.89063,-1.83985 -1.47656,-1.83984 -1.47656,-4.875 0,-3.04687 1.47656,-4.88672 1.47657,-1.83984 3.89063,-1.83984 1.45312,0 2.49609,0.57422 1.04297,0.57422 1.71094,1.73437 v -1.99218 h 2.15625 z" />
    <path
       id="path1143"
       style="font-style:normal;font-variant:normal;font-weight:normal;font-stretch:normal;font-size:24px;font-family:sans-serif;-inkscape-font-specification:sans-serif"
       d="m 179.92518,445.29703 v -7.94531 h 2.15625 v 7.86328 q 0,1.86328 0.72656,2.80078 0.72656,0.92578 2.17969,0.92578 1.74609,0 2.7539,-1.11328 1.01954,-1.11328 1.01954,-3.03516 v -7.4414 h 2.15625 v 13.125 h -2.15625 v -2.01563 q -0.78516,1.19531 -1.82813,1.78125 -1.03125,0.57422 -2.40234,0.57422 -2.26172,0 -3.4336,-1.40625 -1.17187,-1.40625 -1.17187,-4.11328 z m 5.42578,-8.26172 z" />
    <path
       id="path1145"
       style="font-style:normal;font-variant:normal;font-weight:normal;font-stretch:normal;font-size:24px;font-family:sans-serif;-inkscape-font-specification:sans-serif"
       d="m 203.7794,437.73843 v 2.03907 q -0.91407,-0.46875 -1.89844,-0.70313 -0.98438,-0.23437 -2.03906,-0.23437 -1.60547,0 -2.41407,0.49218 -0.79687,0.49219 -0.79687,1.47657 0,0.75 0.57422,1.18359 0.57422,0.42188 2.30859,0.80859 l 0.73828,0.16407 q 2.29688,0.49218 3.25781,1.39453 0.97266,0.89062 0.97266,2.49609 0,1.82813 -1.45312,2.89453 -1.44141,1.06641 -3.97266,1.06641 -1.05469,0 -2.20313,-0.21094 -1.13671,-0.19922 -2.40234,-0.60937 v -2.22657 q 1.19531,0.6211 2.35547,0.9375 1.16016,0.30469 2.29687,0.30469 1.52344,0 2.34375,-0.51562 0.82032,-0.52735 0.82032,-1.47657 0,-0.8789 -0.59766,-1.34765 -0.58594,-0.46875 -2.58984,-0.90235 l -0.75,-0.17578 q -2.00391,-0.42187 -2.89453,-1.28906 -0.89063,-0.87891 -0.89063,-2.40234 0,-1.85157 1.3125,-2.85938 1.3125,-1.00781 3.72656,-1.00781 1.19532,0 2.25,0.17578 1.05469,0.17578 1.94532,0.52734 z" />
  </g>
</svg>
